EESchema Schematic File Version 4
EELAYER 30 0
EELAYER END
$Descr A4 11693 8268
encoding utf-8
Sheet 1 1
Title ""
Date ""
Rev ""
Comp ""
Comment1 ""
Comment2 ""
Comment3 ""
Comment4 ""
$EndDescr
Wire Wire Line
	4450 4900 3700 4900
Wire Wire Line
	3300 6250 3500 6250
Wire Wire Line
	3300 6300 3300 6250
Wire Wire Line
	3300 5850 3500 5850
Wire Wire Line
	3300 5800 3300 5850
Wire Wire Line
	3200 5950 3500 5950
Wire Wire Line
	4100 3900 3700 3900
Wire Wire Line
	3500 6050 3150 6050
Wire Wire Line
	3100 6150 3500 6150
Wire Wire Line
	3750 5300 3700 5300
Wire Wire Line
	3700 4700 4600 4700
Wire Wire Line
	3700 4600 4650 4600
Wire Wire Line
	3700 4500 4700 4500
Wire Wire Line
	3700 4400 4750 4400
Wire Wire Line
	4000 6150 4500 6150
Wire Wire Line
	4450 6050 4000 6050
Wire Wire Line
	4000 5950 4400 5950
Wire Wire Line
	4200 6250 4000 6250
Wire Wire Line
	4200 6300 4200 6250
$Comp
L power:GND #PWR?
U 1 1 62137F36
P 4200 6300
F 0 "#PWR?" H 4200 6050 50  0001 C CNN
F 1 "GND" H 4205 6127 50  0000 C CNN
F 2 "" H 4200 6300 50  0001 C CNN
F 3 "" H 4200 6300 50  0001 C CNN
	1    4200 6300
	1    0    0    -1  
$EndComp
$Comp
L power:GND #PWR?
U 1 1 621377E3
P 3300 6300
F 0 "#PWR?" H 3300 6050 50  0001 C CNN
F 1 "GND" H 3305 6127 50  0000 C CNN
F 2 "" H 3300 6300 50  0001 C CNN
F 3 "" H 3300 6300 50  0001 C CNN
	1    3300 6300
	1    0    0    -1  
$EndComp
$Comp
L power:+3.3V #PWR?
U 1 1 6212D3FE
P 3300 5800
F 0 "#PWR?" H 3300 5650 50  0001 C CNN
F 1 "+3.3V" H 3315 5973 50  0000 C CNN
F 2 "" H 3300 5800 50  0001 C CNN
F 3 "" H 3300 5800 50  0001 C CNN
	1    3300 5800
	1    0    0    -1  
$EndComp
Wire Wire Line
	4200 5850 4000 5850
Wire Wire Line
	4200 5800 4200 5850
$Comp
L power:+3.3V #PWR?
U 1 1 62122E85
P 4200 5800
F 0 "#PWR?" H 4200 5650 50  0001 C CNN
F 1 "+3.3V" H 4215 5973 50  0000 C CNN
F 2 "" H 4200 5800 50  0001 C CNN
F 3 "" H 4200 5800 50  0001 C CNN
	1    4200 5800
	1    0    0    -1  
$EndComp
Wire Wire Line
	5150 3700 4950 3700
$Comp
L Connector_Generic:Conn_02x05_Counter_Clockwise J5
U 1 1 620FA51F
P 3700 6050
F 0 "J5" H 3750 6467 50  0000 C CNN
F 1 "Conn_02x05_Female" H 3750 6376 50  0000 C CNN
F 2 "Connector_PinHeader_2.54mm:PinHeader_2x05_P2.54mm_Vertical" H 3700 6050 50  0001 C CNN
F 3 "~" H 3700 6050 50  0001 C CNN
	1    3700 6050
	1    0    0    -1  
$EndComp
Wire Wire Line
	1900 2600 1850 2600
Wire Wire Line
	1850 2700 1900 2700
Text GLabel 1850 2700 0    50   BiDi ~ 0
PC7
Text GLabel 1850 2600 0    50   BiDi ~ 0
PC6
Wire Wire Line
	1900 4600 1850 4600
Wire Wire Line
	1850 4700 1900 4700
Text GLabel 1850 4700 0    50   BiDi ~ 0
PD9
Text GLabel 1850 4600 0    50   BiDi ~ 0
PD8
Text GLabel 3750 5300 2    50   BiDi ~ 0
PB15
Wire Wire Line
	3750 2800 3700 2800
Text GLabel 3750 2800 2    50   BiDi ~ 0
PA8
Wire Wire Line
	5000 3800 4950 3800
Wire Wire Line
	4950 3900 5000 3900
Wire Wire Line
	5000 4000 4950 4000
Wire Wire Line
	4950 4100 5000 4100
Wire Wire Line
	4450 3900 4400 3900
Wire Wire Line
	4400 4000 4450 4000
Wire Wire Line
	4400 4100 4400 4150
Wire Wire Line
	4450 4100 4400 4100
Wire Wire Line
	5150 3650 5150 3700
$Comp
L power:+3.3V #PWR?
U 1 1 61FD944E
P 5150 3650
F 0 "#PWR?" H 5150 3500 50  0001 C CNN
F 1 "+3.3V" H 5165 3823 50  0000 C CNN
F 2 "" H 5150 3650 50  0001 C CNN
F 3 "" H 5150 3650 50  0001 C CNN
	1    5150 3650
	1    0    0    -1  
$EndComp
$Comp
L power:GND #PWR?
U 1 1 61FD8905
P 4400 4150
F 0 "#PWR?" H 4400 3900 50  0001 C CNN
F 1 "GND" H 4405 3977 50  0000 C CNN
F 2 "" H 4400 4150 50  0001 C CNN
F 3 "" H 4400 4150 50  0001 C CNN
	1    4400 4150
	1    0    0    -1  
$EndComp
Text GLabel 5000 3800 2    50   BiDi ~ 0
PB15
Text GLabel 5000 3900 2    50   BiDi ~ 0
PA8
Text GLabel 5000 4000 2    50   BiDi ~ 0
PC6
Text GLabel 5000 4100 2    50   BiDi ~ 0
PC7
Text GLabel 4400 4000 0    50   BiDi ~ 0
PD8
Text GLabel 4400 3900 0    50   BiDi ~ 0
PD9
Wire Wire Line
	4200 3800 4200 3100
Wire Wire Line
	4450 3800 4200 3800
Wire Wire Line
	4300 3700 4450 3700
Wire Wire Line
	4300 3200 4300 3700
$Comp
L Connector_Generic:Conn_02x05_Counter_Clockwise J7
U 1 1 61FADEDE
P 4650 3900
F 0 "J7" H 4700 4317 50  0000 C CNN
F 1 "Conn_02x05_Female" H 4700 4226 50  0000 C CNN
F 2 "Connector_PinHeader_2.54mm:PinHeader_2x05_P2.54mm_Vertical" H 4650 3900 50  0001 C CNN
F 3 "~" H 4650 3900 50  0001 C CNN
	1    4650 3900
	1    0    0    -1  
$EndComp
Wire Wire Line
	1200 3200 1550 3200
Wire Wire Line
	1200 2900 1550 2900
Wire Wire Line
	1200 3100 1900 3100
Wire Wire Line
	1200 3000 1900 3000
Wire Wire Line
	850  2300 850  2100
Connection ~ 850  2300
Wire Wire Line
	900  2300 850  2300
Wire Wire Line
	850  2100 850  1900
Connection ~ 850  2100
Wire Wire Line
	900  2100 850  2100
Wire Wire Line
	850  1900 900  1900
Wire Wire Line
	850  2400 850  2300
$Comp
L power:GND #PWR?
U 1 1 61F21DC3
P 850 2400
F 0 "#PWR?" H 850 2150 50  0001 C CNN
F 1 "GND" H 855 2227 50  0000 C CNN
F 2 "" H 850 2400 50  0001 C CNN
F 3 "" H 850 2400 50  0001 C CNN
	1    850  2400
	-1   0    0    -1  
$EndComp
Connection ~ 750  2000
Wire Wire Line
	750  2200 750  2000
Wire Wire Line
	900  2200 750  2200
Connection ~ 1550 1350
Wire Wire Line
	750  1350 1550 1350
Wire Wire Line
	750  2000 750  1350
Wire Wire Line
	900  2000 750  2000
Connection ~ 2250 1350
Wire Wire Line
	1550 1350 2250 1350
Wire Wire Line
	1550 1900 1550 1350
Wire Wire Line
	1400 1900 1550 1900
$Comp
L Connector_Generic:Conn_02x05_Counter_Clockwise J3
U 1 1 61F0CDA5
P 1200 2100
F 0 "J3" H 1250 2517 50  0000 C CNN
F 1 "Conn_02x05_Female" H 1250 2426 50  0000 C CNN
F 2 "Connector_PinHeader_2.54mm:PinHeader_2x05_P2.54mm_Vertical" H 1200 2100 50  0001 C CNN
F 3 "~" H 1200 2100 50  0001 C CNN
	1    1200 2100
	-1   0    0    -1  
$EndComp
Wire Wire Line
	1400 2300 1900 2300
Wire Wire Line
	1400 2000 1900 2000
Wire Wire Line
	1550 3250 1550 3200
Wire Wire Line
	1550 2800 1550 2900
$Comp
L power:+3.3V #PWR?
U 1 1 61EC93F3
P 1550 2800
F 0 "#PWR?" H 1550 2650 50  0001 C CNN
F 1 "+3.3V" H 1500 2950 50  0000 C CNN
F 2 "" H 1550 2800 50  0001 C CNN
F 3 "" H 1550 2800 50  0001 C CNN
	1    1550 2800
	1    0    0    -1  
$EndComp
$Comp
L power:GND #PWR?
U 1 1 61E815D5
P 1550 3250
F 0 "#PWR?" H 1550 3000 50  0001 C CNN
F 1 "GND" H 1555 3077 50  0000 C CNN
F 2 "" H 1550 3250 50  0001 C CNN
F 3 "" H 1550 3250 50  0001 C CNN
	1    1550 3250
	-1   0    0    -1  
$EndComp
$Comp
L Connector:Conn_01x04_Female J1
U 1 1 61E810AB
P 1000 3100
F 0 "J1" H 892 2675 50  0000 C CNN
F 1 "Conn_01x04_Female" H 892 2766 50  0000 C CNN
F 2 "Connector_PinHeader_2.54mm:PinHeader_1x04_P2.54mm_Vertical" H 1000 3100 50  0001 C CNN
F 3 "~" H 1000 3100 50  0001 C CNN
	1    1000 3100
	-1   0    0    1   
$EndComp
Text GLabel 3750 4100 2    50   BiDi ~ 0
PB3
Text GLabel 3750 4200 2    50   BiDi ~ 0
PB4
Wire Wire Line
	3700 4300 3750 4300
Wire Wire Line
	3750 4200 3700 4200
Wire Wire Line
	3700 4100 3750 4100
Wire Wire Line
	850  3800 900  3800
Wire Wire Line
	900  3900 850  3900
Text GLabel 850  4000 0    50   BiDi ~ 0
PB3
Text GLabel 850  3900 0    50   BiDi ~ 0
PB4
Text GLabel 850  3800 0    50   BiDi ~ 0
PB5
Text GLabel 3750 4300 2    50   BiDi ~ 0
PB5
$Comp
L Connector_Generic:Conn_02x05_Counter_Clockwise J4
U 1 1 61E1201A
P 1200 4000
F 0 "J4" H 1250 4417 50  0000 C CNN
F 1 "Conn_02x05_Female" H 1250 4326 50  0000 C CNN
F 2 "Connector_PinHeader_2.54mm:PinHeader_2x05_P2.54mm_Vertical" H 1200 4000 50  0001 C CNN
F 3 "~" H 1200 4000 50  0001 C CNN
	1    1200 4000
	-1   0    0    -1  
$EndComp
Wire Wire Line
	1850 4400 1850 4350
Wire Wire Line
	1900 4400 1850 4400
$Comp
L Connector:TestPoint TP8
U 1 1 61DB3FA4
P 4800 6050
F 0 "TP8" H 4858 6168 50  0000 L CNN
F 1 "TestPt" H 4858 6077 50  0000 L CNN
F 2 "TestPoint:TestPoint_Pad_1.0x1.0mm" H 5000 6050 50  0001 C CNN
F 3 "~" H 5000 6050 50  0001 C CNN
F 4 "PB9 LED3" H 4800 6050 50  0001 C CNN "Name"
	1    4800 6050
	0    1    -1   0   
$EndComp
$Comp
L Connector:TestPoint TP7
U 1 1 61DB3844
P 4800 5700
F 0 "TP7" H 4858 5818 50  0000 L CNN
F 1 "TestPt" H 4858 5727 50  0000 L CNN
F 2 "TestPoint:TestPoint_Pad_1.0x1.0mm" H 5000 5700 50  0001 C CNN
F 3 "~" H 5000 5700 50  0001 C CNN
F 4 "PB8 LED2" H 4800 5700 50  0001 C CNN "Name"
	1    4800 5700
	0    1    -1   0   
$EndComp
$Comp
L Connector:TestPoint TP6
U 1 1 61DB330F
P 4800 5050
F 0 "TP6" H 4858 5168 50  0000 L CNN
F 1 "TestPt" H 4858 5077 50  0000 L CNN
F 2 "TestPoint:TestPoint_Pad_1.0x1.0mm" H 5000 5050 50  0001 C CNN
F 3 "~" H 5000 5050 50  0001 C CNN
F 4 "PB7 LED1" H 4800 5050 50  0001 C CNN "Name"
	1    4800 5050
	0    1    -1   0   
$EndComp
$Comp
L Connector:TestPoint TP5
U 1 1 61DB1E87
P 4800 4700
F 0 "TP5" H 4858 4818 50  0000 L CNN
F 1 "TestPt" H 4858 4727 50  0000 L CNN
F 2 "TestPoint:TestPoint_Pad_1.0x1.0mm" H 5000 4700 50  0001 C CNN
F 3 "~" H 5000 4700 50  0001 C CNN
F 4 "PB6 LED0" H 4800 4700 50  0001 C CNN "Name"
	1    4800 4700
	0    1    -1   0   
$EndComp
Wire Wire Line
	5100 5200 5100 5000
Wire Wire Line
	5200 5000 5200 5100
Text GLabel 5100 5300 3    50   Output ~ 0
I2C2_SDA
Text GLabel 5200 5300 3    50   Output ~ 0
I2C2_SCL
$Comp
L power:+3.3V #PWR?
U 1 1 61D627AF
P 6200 7600
F 0 "#PWR?" H 6200 7450 50  0001 C CNN
F 1 "+3.3V" H 6215 7773 50  0000 C CNN
F 2 "" H 6200 7600 50  0001 C CNN
F 3 "" H 6200 7600 50  0001 C CNN
	1    6200 7600
	1    0    0    -1  
$EndComp
Connection ~ 1850 6200
Wire Wire Line
	1800 6500 1500 6500
Wire Wire Line
	1800 6600 1800 6500
Wire Wire Line
	1900 6200 1850 6200
Wire Wire Line
	1900 5850 1850 5850
Wire Wire Line
	2150 5850 2100 5850
Wire Wire Line
	2150 5900 2150 5850
Wire Wire Line
	2150 6200 2100 6200
Wire Wire Line
	2150 6250 2150 6200
$Comp
L Connector:TestPoint TP3
U 1 1 61C95746
P 1800 6600
F 0 "TP3" H 1858 6718 50  0000 L CNN
F 1 "TestPt" H 1858 6627 50  0000 L CNN
F 2 "TestPoint:TestPoint_Pad_1.0x1.0mm" H 2000 6600 50  0001 C CNN
F 3 "~" H 2000 6600 50  0001 C CNN
	1    1800 6600
	1    0    0    1   
$EndComp
Text Notes 1000 7200 0    50   ~ 0
Jeśli źródło odniesienia: 15k, 220k, 370k\nJeśli bez: 100k, 220k, 0R
Wire Wire Line
	1250 5850 1250 5950
Connection ~ 1500 6200
Wire Wire Line
	1250 6200 1250 6350
Connection ~ 1250 6200
Wire Wire Line
	1500 6200 1250 6200
Wire Wire Line
	1500 6250 1500 6200
Wire Wire Line
	1250 6150 1250 6200
Connection ~ 1500 6500
Wire Wire Line
	1500 6550 1500 6500
Wire Wire Line
	1450 6500 1500 6500
Wire Wire Line
	1500 6500 1500 6450
Wire Wire Line
	1250 6750 1250 6650
$Comp
L power:GND #PWR?
U 1 1 61C474B0
P 1250 6750
F 0 "#PWR?" H 1250 6500 50  0001 C CNN
F 1 "GND" H 1255 6577 50  0000 C CNN
F 2 "" H 1250 6750 50  0001 C CNN
F 3 "" H 1250 6750 50  0001 C CNN
	1    1250 6750
	1    0    0    -1  
$EndComp
$Comp
L power:GND #PWR?
U 1 1 61C47095
P 1500 6750
F 0 "#PWR?" H 1500 6500 50  0001 C CNN
F 1 "GND" H 1505 6577 50  0000 C CNN
F 2 "" H 1500 6750 50  0001 C CNN
F 3 "" H 1500 6750 50  0001 C CNN
	1    1500 6750
	1    0    0    -1  
$EndComp
$Comp
L Device:R_Small R1
U 1 1 61C4551C
P 1250 6050
F 0 "R1" H 1309 6096 50  0000 L CNN
F 1 "15k" H 1309 6005 50  0000 L CNN
F 2 "Resistor_SMD:R_0603_1608Metric_Pad0.98x0.95mm_HandSolder" H 1250 6050 50  0001 C CNN
F 3 "~" H 1250 6050 50  0001 C CNN
	1    1250 6050
	1    0    0    -1  
$EndComp
$Comp
L Device:R_Small R3
U 1 1 61C44909
P 1500 6650
F 0 "R3" H 1559 6696 50  0000 L CNN
F 1 "370k" H 1559 6605 50  0000 L CNN
F 2 "Resistor_SMD:R_0603_1608Metric_Pad0.98x0.95mm_HandSolder" H 1500 6650 50  0001 C CNN
F 3 "~" H 1500 6650 50  0001 C CNN
	1    1500 6650
	1    0    0    -1  
$EndComp
$Comp
L Device:R_Small R2
U 1 1 61C4437B
P 1500 6350
F 0 "R2" H 1559 6396 50  0000 L CNN
F 1 "220k" H 1559 6305 50  0000 L CNN
F 2 "Resistor_SMD:R_0603_1608Metric_Pad0.98x0.95mm_HandSolder" H 1500 6350 50  0001 C CNN
F 3 "~" H 1500 6350 50  0001 C CNN
	1    1500 6350
	1    0    0    -1  
$EndComp
$Comp
L Reference_Voltage:LM4041LP-ADJ U1
U 1 1 61C41BF2
P 1250 6500
F 0 "U1" V 1296 6413 50  0000 R CNN
F 1 "LM4041LP-ADJ" V 1205 6413 50  0000 R CNN
F 2 "Package_TO_SOT_SMD:SOT-23" H 1250 6300 50  0001 C CIN
F 3 "http://www.ti.com/lit/ds/symlink/lm4041-n.pdf" H 1350 6650 50  0001 C CIN
	1    1250 6500
	0    1    -1   0   
$EndComp
$Comp
L power:+5VA #PWR?
U 1 1 61C0D25C
P 1250 5850
F 0 "#PWR?" H 1250 5700 50  0001 C CNN
F 1 "+5VA" H 1265 6023 50  0000 C CNN
F 2 "" H 1250 5850 50  0001 C CNN
F 3 "" H 1250 5850 50  0001 C CNN
	1    1250 5850
	1    0    0    -1  
$EndComp
Wire Wire Line
	5850 2300 5850 2500
Wire Wire Line
	5750 2300 5750 2400
$Comp
L Connector:TestPoint TP10
U 1 1 61C046BF
P 5750 2300
F 0 "TP10" H 5808 2418 50  0000 L CNN
F 1 "TestPt" H 5808 2327 50  0000 L CNN
F 2 "TestPoint:TestPoint_Pad_1.0x1.0mm" H 5950 2300 50  0001 C CNN
F 3 "~" H 5950 2300 50  0001 C CNN
	1    5750 2300
	-1   0    0    -1  
$EndComp
$Comp
L Connector:TestPoint TP11
U 1 1 61C03C4F
P 5850 2300
F 0 "TP11" H 5908 2418 50  0000 L CNN
F 1 "TestPt" H 5908 2327 50  0000 L CNN
F 2 "TestPoint:TestPoint_Pad_1.0x1.0mm" H 6050 2300 50  0001 C CNN
F 3 "~" H 6050 2300 50  0001 C CNN
	1    5850 2300
	1    0    0    -1  
$EndComp
Wire Wire Line
	3700 3400 4050 3400
Wire Wire Line
	1850 6200 1500 6200
Wire Wire Line
	1900 5300 1850 5300
Wire Wire Line
	1050 5250 1050 5200
$Comp
L power:GND #PWR?
U 1 1 61C39B0D
P 1050 5250
F 0 "#PWR?" H 1050 5000 50  0001 C CNN
F 1 "GND" H 1055 5077 50  0000 C CNN
F 2 "" H 1050 5250 50  0001 C CNN
F 3 "" H 1050 5250 50  0001 C CNN
	1    1050 5250
	1    0    0    -1  
$EndComp
NoConn ~ 650  4900
$Comp
L Oscillator:ECS-2520MV-xxx-xx X1
U 1 1 61C1AF7E
P 1050 4900
F 0 "X1" H 850 5150 50  0000 R CNN
F 1 "520-2520MV-080-BN-TR" V 550 5350 50  0000 R CNN
F 2 "Oscillator:Oscillator_SMD_ECS_2520MV-xxx-xx-4Pin_2.5x2.0mm" H 1500 4550 50  0001 C CNN
F 3 "https://eu.mouser.com/datasheet/2/122/ECS_2520MV-1825395.pdf" H 875 5025 50  0001 C CNN
	1    1050 4900
	1    0    0    -1  
$EndComp
Text GLabel 5850 2550 3    50   Output ~ 0
DAC2
Text GLabel 5750 2550 3    50   Output ~ 0
DAC1
$Comp
L power:+3.3V #PWR?
U 1 1 61B92D5E
P 1050 4500
F 0 "#PWR?" H 1050 4350 50  0001 C CNN
F 1 "+3.3V" H 900 4600 50  0000 C CNN
F 2 "" H 1050 4500 50  0001 C CNN
F 3 "" H 1050 4500 50  0001 C CNN
	1    1050 4500
	1    0    0    -1  
$EndComp
Text GLabel 1900 5100 0    50   Input ~ 0
NRST
$Comp
L Connector:Conn_01x02_Male TP4
U 1 1 61C09826
P 4450 2900
F 0 "TP4" H 4500 3000 50  0000 L CNN
F 1 "Conn_01x02_Male" H 4000 2750 50  0000 L CNN
F 2 "Connector_PinHeader_2.54mm:PinHeader_1x02_P2.54mm_Vertical" H 4450 2900 50  0001 C CNN
F 3 "~" H 4450 2900 50  0001 C CNN
	1    4450 2900
	-1   0    0    -1  
$EndComp
$Comp
L Connector:Conn_01x02_Male TP9
U 1 1 61C08941
P 5200 4800
F 0 "TP9" H 5200 4850 50  0000 L CNN
F 1 "Conn_01x02_Male" H 4800 4950 50  0000 L CNN
F 2 "Connector_PinHeader_2.54mm:PinHeader_1x02_P2.54mm_Vertical" H 5200 4800 50  0001 C CNN
F 3 "~" H 5200 4800 50  0001 C CNN
	1    5200 4800
	0    1    1    0   
$EndComp
Text GLabel 4150 1450 3    50   UnSpc ~ 0
NRST
$Comp
L power:GND #PWR?
U 1 1 61BB1D19
P 3950 1100
F 0 "#PWR?" H 3950 850 50  0001 C CNN
F 1 "GND" H 3955 927 50  0000 C CNN
F 2 "" H 3950 1100 50  0001 C CNN
F 3 "" H 3950 1100 50  0001 C CNN
	1    3950 1100
	1    0    0    -1  
$EndComp
Wire Wire Line
	2900 1350 2800 1350
Wire Wire Line
	2450 1350 2800 1350
Connection ~ 2450 1350
Wire Wire Line
	2450 1400 2450 1350
Connection ~ 2800 1350
Wire Wire Line
	2250 1350 2450 1350
Wire Wire Line
	2250 1400 2250 1350
Wire Wire Line
	2450 1600 2450 1650
Wire Wire Line
	2250 1650 2250 1600
$Comp
L power:GND #PWR?
U 1 1 61B7243D
P 2250 1650
F 0 "#PWR?" H 2250 1400 50  0001 C CNN
F 1 "GND" H 2255 1477 50  0000 C CNN
F 2 "" H 2250 1650 50  0001 C CNN
F 3 "" H 2250 1650 50  0001 C CNN
	1    2250 1650
	-1   0    0    -1  
$EndComp
$Comp
L power:GND #PWR?
U 1 1 61B72437
P 2450 1650
F 0 "#PWR?" H 2450 1400 50  0001 C CNN
F 1 "GND" H 2455 1477 50  0000 C CNN
F 2 "" H 2450 1650 50  0001 C CNN
F 3 "" H 2450 1650 50  0001 C CNN
	1    2450 1650
	-1   0    0    -1  
$EndComp
$Comp
L Device:C_Small C5
U 1 1 61B72431
P 2450 1500
F 0 "C5" H 2359 1454 50  0000 R CNN
F 1 "100nF" H 2359 1545 50  0000 R CNN
F 2 "Capacitor_SMD:C_0603_1608Metric_Pad1.08x0.95mm_HandSolder" H 2450 1500 50  0001 C CNN
F 3 "https://pl.mouser.com/datasheet/2/445/885012206095-1727433.pdf" H 2450 1500 50  0001 C CNN
F 4 "885012206095 " H 2450 1500 50  0001 C CNN "Name"
	1    2450 1500
	-1   0    0    1   
$EndComp
$Comp
L Device:C_Small C4
U 1 1 61B7242B
P 2250 1500
F 0 "C4" H 2159 1454 50  0000 R CNN
F 1 "4.7uF" H 2159 1545 50  0000 R CNN
F 2 "Capacitor_SMD:C_0603_1608Metric_Pad1.08x0.95mm_HandSolder" H 2250 1500 50  0001 C CNN
F 3 "https://pl.mouser.com/datasheet/2/585/MLCC-1837944.pdf" H 2250 1500 50  0001 C CNN
F 4 "CL10A475KP8NNNC " H 2250 1500 50  0001 C CNN "Name"
	1    2250 1500
	1    0    0    1   
$EndComp
$Comp
L power:GND #PWR?
U 1 1 61B6642A
P 2150 6250
F 0 "#PWR?" H 2150 6000 50  0001 C CNN
F 1 "GND" H 2155 6077 50  0000 C CNN
F 2 "" H 2150 6250 50  0001 C CNN
F 3 "" H 2150 6250 50  0001 C CNN
	1    2150 6250
	1    0    0    -1  
$EndComp
$Comp
L power:GND #PWR?
U 1 1 61B6619B
P 2150 5900
F 0 "#PWR?" H 2150 5650 50  0001 C CNN
F 1 "GND" H 2155 5727 50  0000 C CNN
F 2 "" H 2150 5900 50  0001 C CNN
F 3 "" H 2150 5900 50  0001 C CNN
	1    2150 5900
	1    0    0    -1  
$EndComp
$Comp
L Device:C_Small C3
U 1 1 61B65C41
P 2000 6200
F 0 "C3" H 1909 6154 50  0000 R CNN
F 1 "100nF" H 1909 6245 50  0000 R CNN
F 2 "Capacitor_SMD:C_0603_1608Metric_Pad1.08x0.95mm_HandSolder" H 2000 6200 50  0001 C CNN
F 3 "https://pl.mouser.com/datasheet/2/445/885012206095-1727433.pdf" H 2000 6200 50  0001 C CNN
F 4 "885012206095 " H 2000 6200 50  0001 C CNN "Name"
	1    2000 6200
	0    -1   -1   0   
$EndComp
Wire Wire Line
	2800 5550 2800 5650
$Comp
L power:GND #PWR?
U 1 1 61B5511E
P 2800 5650
F 0 "#PWR?" H 2800 5400 50  0001 C CNN
F 1 "GND" H 2805 5477 50  0000 C CNN
F 2 "" H 2800 5650 50  0001 C CNN
F 3 "" H 2800 5650 50  0001 C CNN
	1    2800 5650
	1    0    0    -1  
$EndComp
$Comp
L vga-baza-rescue:STM32G071RxTx-Modum U2
U 1 1 61AE41CF
P 2800 3650
F 0 "U2" H 2150 5400 50  0000 C CNN
F 1 "STM32G071RxTx" H 3250 5400 50  0000 C CNN
F 2 "Modum:QFP-64_10x10_Pitch0.5mm" H 2100 5750 50  0001 C CNN
F 3 "https://pl.mouser.com/datasheet/2/389/dm00412180-1799303.pdf" H 2100 5750 50  0001 C CNN
	1    2800 3650
	1    0    0    -1  
$EndComp
Text GLabel 1450 800  2    50   Input ~ 0
SIG_IN2
Wire Wire Line
	900  1200 850  1200
Wire Wire Line
	1400 1100 1450 1100
Wire Wire Line
	1450 1000 1400 1000
Wire Wire Line
	1450 900  1400 900 
Wire Wire Line
	900  900  850  900 
Wire Wire Line
	900  1000 850  1000
Wire Wire Line
	4450 4900 4450 6050
Wire Wire Line
	3200 5950 3200 5550
Wire Wire Line
	3200 5550 4150 5550
Wire Wire Line
	4100 3900 4100 5500
Wire Wire Line
	4100 5500 3150 5500
Wire Wire Line
	3150 5500 3150 6050
Wire Wire Line
	3100 6150 3100 5450
Wire Wire Line
	3100 5450 4050 5450
$Comp
L Connector_Generic:Conn_02x05_Odd_Even J2
U 1 1 623DCBC2
P 1100 1000
F 0 "J2" H 1150 1417 50  0000 C CNN
F 1 "Conn_02x05_Horizontal" H 1150 1326 50  0000 C CNN
F 2 "Connector_PinSocket_2.54mm:PinSocket_2x05_P2.54mm_Horizontal" H 1100 1000 50  0001 C CNN
F 3 "~" H 1100 1000 50  0001 C CNN
	1    1100 1000
	1    0    0    -1  
$EndComp
Wire Wire Line
	1450 800  1400 800 
Text GLabel 850  800  0    50   Input ~ 0
SIG_IN1
Wire Wire Line
	850  800  900  800 
Text Notes 5600 6300 3    50   ~ 0
LOW = Enabled
$Comp
L Device:LED_Small D2
U 1 1 61CE15A2
P 3950 7500
F 0 "D2" V 3996 7430 50  0000 R CNN
F 1 "R/G" V 3905 7430 50  0000 R CNN
F 2 "LED_SMD:LED_0603_1608Metric_Pad1.05x0.95mm_HandSolder" V 3950 7500 50  0001 C CNN
F 3 "~" V 3950 7500 50  0001 C CNN
	1    3950 7500
	0    1    -1   0   
$EndComp
$Comp
L Device:LED_Small D4
U 1 1 61CE2399
P 4650 7500
F 0 "D4" V 4696 7430 50  0000 R CNN
F 1 "R/G" V 4605 7430 50  0000 R CNN
F 2 "LED_SMD:LED_0603_1608Metric_Pad1.05x0.95mm_HandSolder" V 4650 7500 50  0001 C CNN
F 3 "~" V 4650 7500 50  0001 C CNN
	1    4650 7500
	0    1    -1   0   
$EndComp
$Comp
L power:GND #PWR?
U 1 1 61CE4792
P 3600 7600
F 0 "#PWR?" H 3600 7350 50  0001 C CNN
F 1 "GND" H 3605 7427 50  0000 C CNN
F 2 "" H 3600 7600 50  0001 C CNN
F 3 "" H 3600 7600 50  0001 C CNN
	1    3600 7600
	1    0    0    -1  
$EndComp
$Comp
L power:GND #PWR?
U 1 1 61CE4F56
P 3950 7600
F 0 "#PWR?" H 3950 7350 50  0001 C CNN
F 1 "GND" H 3955 7427 50  0000 C CNN
F 2 "" H 3950 7600 50  0001 C CNN
F 3 "" H 3950 7600 50  0001 C CNN
	1    3950 7600
	1    0    0    -1  
$EndComp
$Comp
L power:GND #PWR?
U 1 1 61CE6B45
P 4300 7600
F 0 "#PWR?" H 4300 7350 50  0001 C CNN
F 1 "GND" H 4305 7427 50  0000 C CNN
F 2 "" H 4300 7600 50  0001 C CNN
F 3 "" H 4300 7600 50  0001 C CNN
	1    4300 7600
	1    0    0    -1  
$EndComp
$Comp
L Device:Q_DUAL_PNP_PNP_BRT_E1B1C2E2B2C1 Q2
U 2 1 61BEBBC5
P 5500 7250
F 0 "Q2" V 5600 7000 50  0000 L CNN
F 1 "PUMB16,115" V 5700 7000 50  0000 L CNN
F 2 "Package_TO_SOT_SMD:SOT-363_SC-70-6_Handsoldering" H 5500 7250 50  0001 C CNN
F 3 "https://pl.mouser.com/datasheet/2/916/PEMB16_PUMB16-1320265.pdf" H 5500 7250 50  0001 C CNN
	2    5500 7250
	0    -1   1    0   
$EndComp
$Comp
L Device:Q_DUAL_PNP_PNP_BRT_E1B1C2E2B2C1 Q2
U 1 1 61BE9F1B
P 5050 6900
F 0 "Q2" V 5150 6650 50  0000 L CNN
F 1 "PUMB16,115" V 5250 6650 50  0000 L CNN
F 2 "Package_TO_SOT_SMD:SOT-363_SC-70-6_Handsoldering" H 5050 6900 50  0001 C CNN
F 3 "https://pl.mouser.com/datasheet/2/916/PEMB16_PUMB16-1320265.pdf" H 5050 6900 50  0001 C CNN
	1    5050 6900
	0    -1   1    0   
$EndComp
$Comp
L Device:Q_DUAL_PNP_PNP_BRT_E1B1C2E2B2C1 Q1
U 2 1 61D4FCAC
P 5950 7600
F 0 "Q1" V 6050 7350 50  0000 L CNN
F 1 "PUMB16,115" V 6100 7550 50  0000 L CNN
F 2 "Package_TO_SOT_SMD:SOT-363_SC-70-6_Handsoldering" H 5950 7600 50  0001 C CNN
F 3 "https://pl.mouser.com/datasheet/2/916/PEMB16_PUMB16-1320265.pdf" H 5950 7600 50  0001 C CNN
	2    5950 7600
	0    -1   1    0   
$EndComp
$Comp
L Device:Q_DUAL_PNP_PNP_BRT_E1B1C2E2B2C1 Q1
U 1 1 61D50791
P 4600 6550
F 0 "Q1" V 4700 6300 50  0000 L CNN
F 1 "PUMB16,115" V 4800 6300 50  0000 L CNN
F 2 "Package_TO_SOT_SMD:SOT-363_SC-70-6_Handsoldering" H 4600 6550 50  0001 C CNN
F 3 "https://pl.mouser.com/datasheet/2/916/PEMB16_PUMB16-1320265.pdf" H 4600 6550 50  0001 C CNN
	1    4600 6550
	0    -1   1    0   
$EndComp
Wire Wire Line
	5050 6550 5050 6200
$Comp
L power:+3.3V #PWR?
U 1 1 624CF7BE
P 5750 7250
F 0 "#PWR?" H 5750 7100 50  0001 C CNN
F 1 "+3.3V" H 5765 7423 50  0000 C CNN
F 2 "" H 5750 7250 50  0001 C CNN
F 3 "" H 5750 7250 50  0001 C CNN
	1    5750 7250
	1    0    0    -1  
$EndComp
$Comp
L power:+3.3V #PWR?
U 1 1 624CFD09
P 5300 6900
F 0 "#PWR?" H 5300 6750 50  0001 C CNN
F 1 "+3.3V" H 5315 7073 50  0000 C CNN
F 2 "" H 5300 6900 50  0001 C CNN
F 3 "" H 5300 6900 50  0001 C CNN
	1    5300 6900
	1    0    0    -1  
$EndComp
$Comp
L power:+3.3V #PWR?
U 1 1 624D063F
P 4850 6550
F 0 "#PWR?" H 4850 6400 50  0001 C CNN
F 1 "+3.3V" H 4865 6723 50  0000 C CNN
F 2 "" H 4850 6550 50  0001 C CNN
F 3 "" H 4850 6550 50  0001 C CNN
	1    4850 6550
	1    0    0    -1  
$EndComp
Wire Wire Line
	4850 6550 4850 6600
Wire Wire Line
	4850 6600 4800 6600
Wire Wire Line
	5300 6900 5300 6950
Wire Wire Line
	5300 6950 5250 6950
Wire Wire Line
	5750 7250 5750 7300
Wire Wire Line
	5750 7300 5700 7300
Wire Wire Line
	6200 7600 6200 7650
Wire Wire Line
	6200 7650 6150 7650
$Comp
L power:GND #PWR?
U 1 1 626AB75E
P 4650 7600
F 0 "#PWR?" H 4650 7350 50  0001 C CNN
F 1 "GND" H 4655 7427 50  0000 C CNN
F 2 "" H 4650 7600 50  0001 C CNN
F 3 "" H 4650 7600 50  0001 C CNN
	1    4650 7600
	1    0    0    -1  
$EndComp
Wire Wire Line
	4650 7050 4750 7050
Wire Wire Line
	4750 7050 4750 7650
Wire Wire Line
	4750 7650 5750 7650
Wire Wire Line
	4300 7000 4800 7000
Wire Wire Line
	4800 7000 4800 7300
Wire Wire Line
	4800 7300 5300 7300
Wire Wire Line
	4850 6950 3950 6950
Wire Wire Line
	3600 6600 4400 6600
Wire Wire Line
	3700 5100 5200 5100
Wire Wire Line
	4600 6200 4600 6050
Wire Wire Line
	5050 6200 4650 6200
Wire Wire Line
	4650 6200 4650 5700
Wire Wire Line
	4700 4500 4700 5050
Wire Wire Line
	4700 6150 5500 6150
Wire Wire Line
	5500 6150 5500 6900
Wire Wire Line
	5950 6100 4750 6100
Wire Wire Line
	4750 6100 4750 4700
Wire Wire Line
	5950 6100 5950 7250
Wire Wire Line
	4800 6050 4600 6050
Connection ~ 4600 6050
Wire Wire Line
	4600 6050 4600 4700
Wire Wire Line
	4800 5700 4650 5700
Connection ~ 4650 5700
Wire Wire Line
	4650 5700 4650 4600
Wire Wire Line
	4800 5050 4700 5050
Connection ~ 4700 5050
Wire Wire Line
	4700 5050 4700 6150
Wire Wire Line
	4800 4700 4750 4700
Connection ~ 4750 4700
Wire Wire Line
	4750 4700 4750 4400
Wire Wire Line
	3700 5200 5100 5200
Wire Wire Line
	750  1100 750  1350
Wire Wire Line
	750  1100 900  1100
Connection ~ 750  1350
Wire Wire Line
	3700 3300 4000 3300
Wire Wire Line
	850  1200 850  1300
Wire Wire Line
	850  1300 1700 1300
Wire Wire Line
	2950 1300 2950 1850
Wire Wire Line
	4150 1850 4150 2900
Wire Wire Line
	4150 2900 4250 2900
Wire Wire Line
	3000 1800 3000 1200
Wire Wire Line
	1400 1200 1800 1200
Wire Wire Line
	4200 3000 4250 3000
Text GLabel 1700 1400 3    50   Input ~ 0
I2C1_SCL
Text GLabel 1800 1400 3    50   Input ~ 0
I2C1_SDA
Wire Wire Line
	1800 1400 1800 1200
Connection ~ 1800 1200
Wire Wire Line
	1800 1200 3000 1200
Wire Wire Line
	1700 1400 1700 1300
Connection ~ 1700 1300
Wire Wire Line
	1700 1300 2950 1300
$Comp
L power:GND #PWR?
U 1 1 62929486
P 1450 1100
F 0 "#PWR?" H 1450 850 50  0001 C CNN
F 1 "GND" V 1450 900 50  0000 C CNN
F 2 "" H 1450 1100 50  0001 C CNN
F 3 "" H 1450 1100 50  0001 C CNN
	1    1450 1100
	0    -1   1    0   
$EndComp
$Comp
L power:GND #PWR?
U 1 1 62929C42
P 850 1000
F 0 "#PWR?" H 850 750 50  0001 C CNN
F 1 "GND" V 850 800 50  0000 C CNN
F 2 "" H 850 1000 50  0001 C CNN
F 3 "" H 850 1000 50  0001 C CNN
	1    850  1000
	0    1    -1   0   
$EndComp
$Comp
L power:GND #PWR?
U 1 1 6292A134
P 850 900
F 0 "#PWR?" H 850 650 50  0001 C CNN
F 1 "GND" V 850 700 50  0000 C CNN
F 2 "" H 850 900 50  0001 C CNN
F 3 "" H 850 900 50  0001 C CNN
	1    850  900 
	0    1    -1   0   
$EndComp
$Comp
L power:+5VA #PWR?
U 1 1 6292C247
P 1450 900
F 0 "#PWR?" H 1450 750 50  0001 C CNN
F 1 "+5VA" V 1465 1028 50  0000 L CNN
F 2 "" H 1450 900 50  0001 C CNN
F 3 "" H 1450 900 50  0001 C CNN
	1    1450 900 
	0    1    1    0   
$EndComp
$Comp
L power:+9VA #PWR?
U 1 1 6292CC3A
P 1450 1000
F 0 "#PWR?" H 1450 875 50  0001 C CNN
F 1 "+9VA" V 1465 1128 50  0000 L CNN
F 2 "" H 1450 1000 50  0001 C CNN
F 3 "" H 1450 1000 50  0001 C CNN
	1    1450 1000
	0    1    1    0   
$EndComp
$Comp
L power:+3.3V #PWR?
U 1 1 6292EE58
P 750 1100
F 0 "#PWR?" H 750 950 50  0001 C CNN
F 1 "+3.3V" V 650 1250 50  0000 C CNN
F 2 "" H 750 1100 50  0001 C CNN
F 3 "" H 750 1100 50  0001 C CNN
	1    750  1100
	0    -1   -1   0   
$EndComp
Connection ~ 750  1100
Wire Wire Line
	2950 1850 4150 1850
Wire Wire Line
	4150 2900 3700 2900
Connection ~ 4150 2900
Connection ~ 4200 3000
Wire Wire Line
	4200 1800 4200 3000
Connection ~ 5100 5200
Connection ~ 5200 5100
Wire Wire Line
	5100 5200 5100 5300
Wire Wire Line
	5200 5300 5200 5100
Wire Wire Line
	5750 2550 5750 2400
Wire Wire Line
	5850 2500 5850 2550
$Comp
L power:+9VA #PWR?
U 1 1 62C30916
P 6250 750
F 0 "#PWR?" H 6250 625 50  0001 C CNN
F 1 "+9VA" H 6265 923 50  0000 C CNN
F 2 "" H 6250 750 50  0001 C CNN
F 3 "" H 6250 750 50  0001 C CNN
	1    6250 750 
	1    0    0    -1  
$EndComp
$Comp
L power:+5VA #PWR?
U 1 1 62C313C3
P 7050 800
F 0 "#PWR?" H 7050 650 50  0001 C CNN
F 1 "+5VA" H 7065 973 50  0000 C CNN
F 2 "" H 7050 800 50  0001 C CNN
F 3 "" H 7050 800 50  0001 C CNN
	1    7050 800 
	1    0    0    -1  
$EndComp
Text GLabel 6500 1400 0    50   Output ~ 0
SIG_IN2
Text GLabel 6500 1550 0    50   Output ~ 0
SIG_IN1
Text Notes 4750 2600 0    50   ~ 0
Napiecia sterujace z uC
Text Notes 5250 5300 0    50   ~ 0
i2c z uC do sterowania
Wire Notes Line
	6150 6500 6150 500 
Wire Notes Line
	6150 500  11200 500 
Wire Notes Line
	6150 6500 11200 6500
Wire Wire Line
	6250 800  6250 750 
$Comp
L Device:C_Small C7
U 1 1 62CEA29B
P 6250 950
F 0 "C7" H 6159 904 50  0000 R CNN
F 1 "100nF" H 6159 995 50  0000 R CNN
F 2 "Capacitor_SMD:C_0603_1608Metric_Pad1.08x0.95mm_HandSolder" H 6250 950 50  0001 C CNN
F 3 "https://pl.mouser.com/datasheet/2/445/885012206095-1727433.pdf" H 6250 950 50  0001 C CNN
F 4 "885012206095 " H 6250 950 50  0001 C CNN "Name"
	1    6250 950 
	-1   0    0    1   
$EndComp
$Comp
L Device:CP1_Small C8
U 1 1 62D05599
P 6650 950
F 0 "C8" H 6741 996 50  0000 L CNN
F 1 "100uF" H 6741 905 50  0000 L CNN
F 2 "Capacitor_THT:CP_Radial_D5.0mm_P2.00mm" H 6650 950 50  0001 C CNN
F 3 "https://pl.mouser.com/datasheet/2/445/860010372006-1725314.pdf" H 6650 950 50  0001 C CNN
	1    6650 950 
	1    0    0    -1  
$EndComp
$Comp
L Device:R_Small R7
U 1 1 62D07FE6
P 6450 800
F 0 "R7" H 6509 846 50  0000 L CNN
F 1 "47" H 6509 755 50  0000 L CNN
F 2 "Resistor_SMD:R_0603_1608Metric_Pad0.98x0.95mm_HandSolder" H 6450 800 50  0001 C CNN
F 3 "~" H 6450 800 50  0001 C CNN
	1    6450 800 
	0    1    -1   0   
$EndComp
$Comp
L Device:C_Small C2
U 1 1 62D0F201
P 2000 5850
F 0 "C2" H 1909 5804 50  0000 R CNN
F 1 "1uF" H 1909 5895 50  0000 R CNN
F 2 "Capacitor_SMD:C_0603_1608Metric_Pad1.08x0.95mm_HandSolder" H 2000 5850 50  0001 C CNN
F 3 "https://pl.mouser.com/datasheet/2/585/MLCC-1837944.pdf" H 2000 5850 50  0001 C CNN
F 4 "CL10B105KO8NNNC" H 2000 5850 50  0001 C CNN "Name"
	1    2000 5850
	0    -1   -1   0   
$EndComp
Connection ~ 1850 5850
Wire Wire Line
	1850 5850 1850 6200
$Comp
L Connector:TestPoint TP2
U 1 1 61C2F5D2
P 1500 6150
F 0 "TP2" H 1558 6268 50  0000 L CNN
F 1 "TestPt" H 1558 6177 50  0000 L CNN
F 2 "TestPoint:TestPoint_Pad_1.0x1.0mm" H 1700 6150 50  0001 C CNN
F 3 "~" H 1700 6150 50  0001 C CNN
	1    1500 6150
	1    0    0    -1  
$EndComp
Wire Wire Line
	1500 6150 1500 6200
Wire Wire Line
	4050 1100 4050 1300
Wire Wire Line
	3500 1100 3500 1150
Wire Wire Line
	3500 1150 3650 1150
Wire Wire Line
	3650 1150 3650 1100
Wire Wire Line
	4050 1300 4150 1300
Wire Wire Line
	3000 1800 4200 1800
Wire Wire Line
	2800 1350 2800 1750
Wire Wire Line
	2900 1350 2900 1750
Wire Wire Line
	3700 3200 4300 3200
Wire Wire Line
	3700 3000 4200 3000
Wire Wire Line
	3700 3100 4200 3100
Wire Wire Line
	4150 1450 4150 1300
Wire Wire Line
	4650 7100 4650 7050
Wire Wire Line
	4300 7100 4300 7000
Wire Wire Line
	3600 7100 3600 6600
$Comp
L Device:R_Pack04_Split RN1
U 1 1 61C01D31
P 4300 7250
F 0 "RN1" H 4388 7296 50  0000 L CNN
F 1 "220" H 4388 7205 50  0000 L CNN
F 2 "Modum:R_Array_Convex_4x0603" V 4220 7250 50  0001 C CNN
F 3 "https://pl.mouser.com/datasheet/2/315/AOC0000C14-1108062.pdf" H 4300 7250 50  0001 C CNN
F 4 "EXB-38V221JV" H 4300 7250 50  0001 C CNN "Mouser ID"
	1    4300 7250
	-1   0    0    -1  
$EndComp
$Comp
L Device:R_Pack04_Split RN1
U 2 1 61C0254E
P 3950 7250
F 0 "RN1" H 4038 7296 50  0000 L CNN
F 1 "220" H 4038 7205 50  0000 L CNN
F 2 "Modum:R_Array_Convex_4x0603" V 3870 7250 50  0001 C CNN
F 3 "https://pl.mouser.com/datasheet/2/315/AOC0000C14-1108062.pdf" H 3950 7250 50  0001 C CNN
	2    3950 7250
	-1   0    0    -1  
$EndComp
$Comp
L Connector:Conn_01x05_Male J6
U 1 1 61C6D03F
P 3850 900
F 0 "J6" H 3900 1150 50  0000 L CNN
F 1 "Conn_01x05_Male" H 3550 1250 50  0000 L CNN
F 2 "Connector_PinHeader_2.54mm:PinHeader_1x05_P2.54mm_Vertical" H 3850 900 50  0001 C CNN
F 3 "~" H 3850 900 50  0001 C CNN
	1    3850 900 
	0    1    1    0   
$EndComp
$Comp
L Device:R_Pack04_Split RN1
U 3 1 61C02D95
P 3600 7250
F 0 "RN1" H 3688 7296 50  0000 L CNN
F 1 "220" H 3688 7205 50  0000 L CNN
F 2 "Modum:R_Array_Convex_4x0603" V 3520 7250 50  0001 C CNN
F 3 "https://pl.mouser.com/datasheet/2/315/AOC0000C14-1108062.pdf" H 3600 7250 50  0001 C CNN
	3    3600 7250
	-1   0    0    -1  
$EndComp
$Comp
L Connector:TestPoint TP1
U 1 1 61E73FC2
P 700 1350
F 0 "TP1" H 758 1468 50  0000 L CNN
F 1 "TestPt" H 758 1377 50  0000 L CNN
F 2 "TestPoint:TestPoint_Pad_1.0x1.0mm" H 900 1350 50  0001 C CNN
F 3 "~" H 900 1350 50  0001 C CNN
	1    700  1350
	0    -1   1    0   
$EndComp
Wire Wire Line
	700  1350 750  1350
$Comp
L power:GND #PWR?
U 1 1 61E9BDC1
P 6250 1050
F 0 "#PWR?" H 6250 800 50  0001 C CNN
F 1 "GND" H 6255 877 50  0000 C CNN
F 2 "" H 6250 1050 50  0001 C CNN
F 3 "" H 6250 1050 50  0001 C CNN
	1    6250 1050
	-1   0    0    -1  
$EndComp
$Comp
L power:GND #PWR?
U 1 1 61E9DD02
P 6650 1050
F 0 "#PWR?" H 6650 800 50  0001 C CNN
F 1 "GND" H 6655 877 50  0000 C CNN
F 2 "" H 6650 1050 50  0001 C CNN
F 3 "" H 6650 1050 50  0001 C CNN
	1    6650 1050
	-1   0    0    -1  
$EndComp
Wire Wire Line
	6650 850  6650 800 
Wire Wire Line
	6650 800  6550 800 
Wire Wire Line
	6350 800  6250 800 
Wire Wire Line
	6250 800  6250 850 
Connection ~ 6250 800 
Text Notes 3650 6900 0    50   ~ 0
I - PUMB 10 115\nII - PUMB 16 115\nIII (najslabiej) - PUMB 9 115
$Comp
L vga-baza-rescue:Tactile_Switch-Modum SW3
U 1 1 61F5FC75
P 4700 850
F 0 "SW3" H 4700 1135 50  0000 C CNN
F 1 "Tactile_Switch" H 4750 1050 50  0000 C CNN
F 2 "Button_Switch_SMD:SW_SPST_SKQG_WithStem" H 4700 1050 50  0001 C CNN
F 3 "https://pl.mouser.com/datasheet/2/60/pts526-1651200.pdf" H 4700 1050 50  0001 C CNN
	1    4700 850 
	1    0    0    -1  
$EndComp
$Comp
L Device:C_Small C6
U 1 1 61BC1C0A
P 4700 1150
F 0 "C6" V 4600 1150 50  0000 C CNN
F 1 "100nF" V 4800 1150 50  0000 C CNN
F 2 "Capacitor_SMD:C_0603_1608Metric_Pad1.08x0.95mm_HandSolder" H 4700 1150 50  0001 C CNN
F 3 "https://pl.mouser.com/datasheet/2/445/885012206095-1727433.pdf" H 4700 1150 50  0001 C CNN
F 4 "885012206095 " H 4700 1150 50  0001 C CNN "Name"
	1    4700 1150
	0    -1   -1   0   
$EndComp
$Comp
L power:GND #PWR?
U 1 1 61BCAAAC
P 4950 1150
F 0 "#PWR?" H 4950 900 50  0001 C CNN
F 1 "GND" H 4955 977 50  0000 C CNN
F 2 "" H 4950 1150 50  0001 C CNN
F 3 "" H 4950 1150 50  0001 C CNN
	1    4950 1150
	-1   0    0    -1  
$EndComp
Wire Wire Line
	4950 1150 4800 1150
Wire Wire Line
	6500 1550 6550 1550
Wire Wire Line
	6550 1550 6550 1850
Wire Wire Line
	6550 1850 6750 1850
Connection ~ 6550 1550
Wire Wire Line
	6500 1400 7400 1400
Wire Wire Line
	7400 1400 7400 1850
Wire Wire Line
	7400 1850 7250 1850
Connection ~ 7400 1400
$Comp
L power:GND #PWR?
U 1 1 61EB0CA1
P 7400 2150
F 0 "#PWR?" H 7400 1900 50  0001 C CNN
F 1 "GND" H 7405 1977 50  0000 C CNN
F 2 "" H 7400 2150 50  0001 C CNN
F 3 "" H 7400 2150 50  0001 C CNN
	1    7400 2150
	-1   0    0    -1  
$EndComp
Wire Wire Line
	7400 2150 7250 2150
$Comp
L power:GND #PWR?
U 1 1 61F1ED1B
P 6700 2050
F 0 "#PWR?" H 6700 1800 50  0001 C CNN
F 1 "GND" H 6705 1877 50  0000 C CNN
F 2 "" H 6700 2050 50  0001 C CNN
F 3 "" H 6700 2050 50  0001 C CNN
	1    6700 2050
	0    1    -1   0   
$EndComp
$Comp
L Device:R_Small R4
U 1 1 61FBB32A
P 4350 1000
F 0 "R4" H 4409 1046 50  0000 L CNN
F 1 "47" H 4409 955 50  0000 L CNN
F 2 "Resistor_SMD:R_0603_1608Metric_Pad0.98x0.95mm_HandSolder" H 4350 1000 50  0001 C CNN
F 3 "~" H 4350 1000 50  0001 C CNN
	1    4350 1000
	1    0    0    1   
$EndComp
Wire Wire Line
	4950 1150 4950 850 
Wire Wire Line
	4950 850  4900 850 
Wire Wire Line
	4500 850  4350 850 
Wire Wire Line
	4350 850  4350 900 
Wire Wire Line
	4350 1100 4350 1150
Wire Wire Line
	4350 1150 4600 1150
$Comp
L vga-baza-rescue:Tactile_Switch-Modum SW1
U 1 1 61FB5882
P 4600 1650
F 0 "SW1" H 4600 1935 50  0000 C CNN
F 1 "Tactile_Switch" H 4650 1850 50  0000 C CNN
F 2 "Button_Switch_SMD:SW_SPST_SKQG_WithStem" H 4600 1850 50  0001 C CNN
F 3 "https://pl.mouser.com/datasheet/2/60/pts526-1651200.pdf" H 4600 1850 50  0001 C CNN
	1    4600 1650
	-1   0    0    -1  
$EndComp
$Comp
L Device:R_Small R5
U 1 1 61FAD936
P 4950 1650
F 0 "R5" H 5009 1696 50  0000 L CNN
F 1 "4.7k" H 5009 1605 50  0000 L CNN
F 2 "Resistor_SMD:R_0603_1608Metric_Pad0.98x0.95mm_HandSolder" H 4950 1650 50  0001 C CNN
F 3 "~" H 4950 1650 50  0001 C CNN
	1    4950 1650
	0    1    -1   0   
$EndComp
Connection ~ 5750 2400
Connection ~ 5850 2500
Wire Wire Line
	3700 2400 5750 2400
Wire Wire Line
	3700 2500 5850 2500
$Comp
L vga-baza-rescue:Tactile_Switch-Modum SW2
U 1 1 620F2F51
P 4600 1750
F 0 "SW2" H 4600 2035 50  0000 C CNN
F 1 "Tactile_Switch" H 4650 1950 50  0000 C CNN
F 2 "Button_Switch_SMD:SW_SPST_SKQG_WithStem" H 4600 1950 50  0001 C CNN
F 3 "https://pl.mouser.com/datasheet/2/60/pts526-1651200.pdf" H 4600 1950 50  0001 C CNN
	1    4600 1750
	-1   0    0    1   
$EndComp
$Comp
L Device:R_Small R6
U 1 1 620F2F57
P 4950 1750
F 0 "R6" H 5009 1796 50  0000 L CNN
F 1 "4.7k" H 5009 1705 50  0000 L CNN
F 2 "Resistor_SMD:R_0603_1608Metric_Pad0.98x0.95mm_HandSolder" H 4950 1750 50  0001 C CNN
F 3 "~" H 4950 1750 50  0001 C CNN
	1    4950 1750
	0    1    1    0   
$EndComp
$Comp
L power:+3.3V #PWR?
U 1 1 6210840D
P 3500 1100
F 0 "#PWR?" H 3500 950 50  0001 C CNN
F 1 "+3.3V" H 3515 1273 50  0000 C CNN
F 2 "" H 3500 1100 50  0001 C CNN
F 3 "" H 3500 1100 50  0001 C CNN
	1    3500 1100
	1    0    0    -1  
$EndComp
$Comp
L power:+3.3V #PWR?
U 1 1 6210C064
P 5100 1600
F 0 "#PWR?" H 5100 1450 50  0001 C CNN
F 1 "+3.3V" H 5115 1773 50  0000 C CNN
F 2 "" H 5100 1600 50  0001 C CNN
F 3 "" H 5100 1600 50  0001 C CNN
	1    5100 1600
	1    0    0    -1  
$EndComp
$Comp
L power:GND #PWR?
U 1 1 6210C603
P 5100 1800
F 0 "#PWR?" H 5100 1550 50  0001 C CNN
F 1 "GND" H 5105 1627 50  0000 C CNN
F 2 "" H 5100 1800 50  0001 C CNN
F 3 "" H 5100 1800 50  0001 C CNN
	1    5100 1800
	-1   0    0    -1  
$EndComp
Wire Wire Line
	5100 1800 5100 1750
Wire Wire Line
	5100 1750 5050 1750
Wire Wire Line
	4850 1750 4800 1750
Wire Wire Line
	4800 1650 4850 1650
Wire Wire Line
	5050 1650 5100 1650
Wire Wire Line
	5100 1650 5100 1600
Wire Wire Line
	4400 1650 4350 1650
Wire Wire Line
	4350 1750 4400 1750
Connection ~ 4950 1150
Wire Wire Line
	4150 1300 4350 1300
Wire Wire Line
	4350 1300 4350 1150
Connection ~ 4150 1300
Connection ~ 4350 1150
Text Notes 5150 1600 0    50   ~ 0
BOOT0 = 1
Text Notes 5150 1850 0    50   ~ 0
BOOT0 = 0
Text Notes 4600 950  0    50   ~ 0
RESET
Wire Wire Line
	7050 850  7050 800 
$Comp
L Device:C_Small C9
U 1 1 622722DB
P 7050 1000
F 0 "C9" H 6959 954 50  0000 R CNN
F 1 "100nF" H 6959 1045 50  0000 R CNN
F 2 "Capacitor_SMD:C_0603_1608Metric_Pad1.08x0.95mm_HandSolder" H 7050 1000 50  0001 C CNN
F 3 "https://pl.mouser.com/datasheet/2/445/885012206095-1727433.pdf" H 7050 1000 50  0001 C CNN
F 4 "885012206095 " H 7050 1000 50  0001 C CNN "Name"
	1    7050 1000
	-1   0    0    1   
$EndComp
$Comp
L Device:CP1_Small C10
U 1 1 622722E1
P 7450 1000
F 0 "C10" H 7541 1046 50  0000 L CNN
F 1 "100uF" H 7541 955 50  0000 L CNN
F 2 "Capacitor_THT:CP_Radial_D5.0mm_P2.00mm" H 7450 1000 50  0001 C CNN
F 3 "https://pl.mouser.com/datasheet/2/445/860010372006-1725314.pdf" H 7450 1000 50  0001 C CNN
	1    7450 1000
	1    0    0    -1  
$EndComp
$Comp
L Device:R_Small R8
U 1 1 622722E7
P 7250 850
F 0 "R8" H 7309 896 50  0000 L CNN
F 1 "47" H 7309 805 50  0000 L CNN
F 2 "Resistor_SMD:R_0603_1608Metric_Pad0.98x0.95mm_HandSolder" H 7250 850 50  0001 C CNN
F 3 "~" H 7250 850 50  0001 C CNN
	1    7250 850 
	0    1    -1   0   
$EndComp
$Comp
L power:GND #PWR?
U 1 1 622722ED
P 7050 1100
F 0 "#PWR?" H 7050 850 50  0001 C CNN
F 1 "GND" H 7055 927 50  0000 C CNN
F 2 "" H 7050 1100 50  0001 C CNN
F 3 "" H 7050 1100 50  0001 C CNN
	1    7050 1100
	-1   0    0    -1  
$EndComp
$Comp
L power:GND #PWR?
U 1 1 622722F3
P 7450 1100
F 0 "#PWR?" H 7450 850 50  0001 C CNN
F 1 "GND" H 7455 927 50  0000 C CNN
F 2 "" H 7450 1100 50  0001 C CNN
F 3 "" H 7450 1100 50  0001 C CNN
	1    7450 1100
	-1   0    0    -1  
$EndComp
Wire Wire Line
	7450 900  7450 850 
Wire Wire Line
	7450 850  7350 850 
Wire Wire Line
	7150 850  7050 850 
Wire Wire Line
	7050 850  7050 900 
Connection ~ 7050 850 
Wire Wire Line
	6650 800  6650 550 
Connection ~ 6650 800 
Wire Wire Line
	7450 850  7450 800 
Connection ~ 7450 850 
Wire Wire Line
	6650 550  7850 550 
$Comp
L Jumper:SolderJumper_2_Bridged JP3
U 1 1 623B52EA
P 8300 1400
F 0 "JP3" H 8300 1250 50  0000 C CNN
F 1 "SolderJumper_2_Bridged" H 8300 1300 50  0000 C CNN
F 2 "Jumper:SolderJumper-2_P1.3mm_Bridged_RoundedPad1.0x1.5mm" H 8300 1400 50  0001 C CNN
F 3 "~" H 8300 1400 50  0001 C CNN
	1    8300 1400
	-1   0    0    1   
$EndComp
$Comp
L Jumper:SolderJumper_2_Bridged JP4
U 1 1 6244BCA6
P 8300 1550
F 0 "JP4" H 8300 1650 50  0000 C CNN
F 1 "SolderJumper_2_Bridged" H 8300 1700 50  0000 C CNN
F 2 "Jumper:SolderJumper-2_P1.3mm_Bridged_RoundedPad1.0x1.5mm" H 8300 1550 50  0001 C CNN
F 3 "~" H 8300 1550 50  0001 C CNN
	1    8300 1550
	-1   0    0    1   
$EndComp
Wire Wire Line
	7400 1400 8150 1400
Wire Wire Line
	6550 1550 8150 1550
$Comp
L Jumper:SolderJumper_2_Bridged JP5
U 1 1 6255588A
P 8350 700
F 0 "JP5" H 8350 550 50  0000 C CNN
F 1 "SolderJumper_2_Bridged" H 8350 600 50  0000 C CNN
F 2 "Jumper:SolderJumper-2_P1.3mm_Bridged_RoundedPad1.0x1.5mm" H 8350 700 50  0001 C CNN
F 3 "~" H 8350 700 50  0001 C CNN
	1    8350 700 
	-1   0    0    1   
$EndComp
$Comp
L Jumper:SolderJumper_2_Bridged JP6
U 1 1 62555890
P 8350 800
F 0 "JP6" H 8350 900 50  0000 C CNN
F 1 "SolderJumper_2_Bridged" H 8350 950 50  0000 C CNN
F 2 "Jumper:SolderJumper-2_P1.3mm_Bridged_RoundedPad1.0x1.5mm" H 8350 800 50  0001 C CNN
F 3 "~" H 8350 800 50  0001 C CNN
	1    8350 800 
	-1   0    0    1   
$EndComp
Wire Wire Line
	8200 800  7800 800 
Connection ~ 7800 800 
Wire Wire Line
	7800 800  7800 1750
Wire Wire Line
	7800 800  7450 800 
Wire Wire Line
	8200 700  7850 700 
Wire Wire Line
	7850 700  7850 550 
$Comp
L Device:C_Small C1
U 1 1 62626541
P 1300 4550
F 0 "C1" V 1200 4550 50  0000 C CNN
F 1 "100nF" V 1400 4550 50  0000 C CNN
F 2 "Capacitor_SMD:C_0603_1608Metric_Pad1.08x0.95mm_HandSolder" H 1300 4550 50  0001 C CNN
F 3 "https://pl.mouser.com/datasheet/2/445/885012206095-1727433.pdf" H 1300 4550 50  0001 C CNN
F 4 "885012206095 " H 1300 4550 50  0001 C CNN "Name"
	1    1300 4550
	0    -1   -1   0   
$EndComp
Wire Wire Line
	1050 4500 1050 4550
Wire Wire Line
	1050 4550 1200 4550
Connection ~ 1050 4550
Wire Wire Line
	1050 4550 1050 4600
$Comp
L power:GND #PWR?
U 1 1 6265EB4A
P 1450 4600
F 0 "#PWR?" H 1450 4350 50  0001 C CNN
F 1 "GND" H 1455 4427 50  0000 C CNN
F 2 "" H 1450 4600 50  0001 C CNN
F 3 "" H 1450 4600 50  0001 C CNN
	1    1450 4600
	1    0    0    -1  
$EndComp
Wire Wire Line
	1450 4600 1450 4550
Wire Wire Line
	1450 4550 1400 4550
Wire Wire Line
	1450 4900 1900 4900
Wire Wire Line
	1850 5300 1850 5850
Wire Wire Line
	5850 2500 6600 2500
Wire Wire Line
	5100 5200 5900 5200
$Comp
L Connector_Generic:Conn_02x05_Odd_Even J10
U 1 1 61D2339B
P 6950 2050
F 0 "J10" H 7000 2500 50  0000 C CNN
F 1 "Conn_02x05" H 7000 2400 50  0000 C CNN
F 2 "Connector_PinHeader_2.54mm:PinHeader_2x05_P2.54mm_Vertical" H 6950 2050 50  0001 C CNN
F 3 "~" H 6950 2050 50  0001 C CNN
	1    6950 2050
	1    0    0    -1  
$EndComp
Connection ~ 7850 700 
$Comp
L power:+3.3V #PWR?
U 1 1 61D70491
P 7950 2000
F 0 "#PWR?" H 7950 1850 50  0001 C CNN
F 1 "+3.3V" H 7965 2173 50  0000 C CNN
F 2 "" H 7950 2000 50  0001 C CNN
F 3 "" H 7950 2000 50  0001 C CNN
	1    7950 2000
	1    0    0    -1  
$EndComp
$Comp
L power:GND #PWR?
U 1 1 61DD1E98
P 6700 2250
F 0 "#PWR?" H 6700 2000 50  0001 C CNN
F 1 "GND" H 6705 2077 50  0000 C CNN
F 2 "" H 6700 2250 50  0001 C CNN
F 3 "" H 6700 2250 50  0001 C CNN
	1    6700 2250
	0    1    -1   0   
$EndComp
Wire Wire Line
	6750 1950 6700 1950
Wire Wire Line
	6700 1950 6700 1750
Wire Wire Line
	6700 1750 7800 1750
Wire Wire Line
	7850 700  7850 1950
Wire Wire Line
	7250 1950 7850 1950
Wire Wire Line
	850  4300 850  4200
Wire Wire Line
	850  4200 900  4200
$Comp
L Connector:Conn_01x03_Male J8
U 1 1 61EF2ABE
P 6200 3000
F 0 "J8" V 6200 2800 50  0000 C CNN
F 1 "Conn_01x03_Male" V 6300 2550 50  0000 C CNN
F 2 "Connector_PinHeader_2.54mm:PinHeader_1x03_P2.54mm_Vertical" H 6200 3000 50  0001 C CNN
F 3 "~" H 6200 3000 50  0001 C CNN
	1    6200 3000
	1    0    0    -1  
$EndComp
Wire Wire Line
	5200 5100 5650 5100
Wire Wire Line
	5750 2400 6400 2400
$Comp
L Connector:Conn_01x03_Male J9
U 1 1 61EFFF04
P 6800 3000
F 0 "J9" V 6950 2850 50  0000 R CNN
F 1 "Conn_01x03_Male" V 6850 2850 50  0000 R CNN
F 2 "Connector_PinHeader_2.54mm:PinHeader_1x03_P2.54mm_Vertical" H 6800 3000 50  0001 C CNN
F 3 "~" H 6800 3000 50  0001 C CNN
	1    6800 3000
	-1   0    0    -1  
$EndComp
Wire Wire Line
	6400 3100 6400 5100
Wire Wire Line
	6400 2900 6400 2400
Wire Wire Line
	6600 2500 6600 2900
Wire Wire Line
	6600 3000 6550 3000
Wire Wire Line
	6400 3000 6450 3000
Wire Wire Line
	6450 3000 6450 2350
Wire Wire Line
	6700 2050 6750 2050
Wire Wire Line
	6750 2250 6700 2250
Wire Wire Line
	4050 5450 4050 4000
Wire Wire Line
	4150 3800 4150 5550
Wire Wire Line
	4050 4000 3700 4000
Wire Wire Line
	3700 3800 4150 3800
Wire Wire Line
	4500 4800 4500 6150
Wire Wire Line
	4400 5000 3700 5000
Wire Wire Line
	4400 5000 4400 5950
Wire Wire Line
	3700 4800 4500 4800
Wire Wire Line
	3950 6950 3950 7100
$Comp
L Device:R_Pack04_Split RN1
U 4 1 61C038A5
P 4650 7250
F 0 "RN1" H 4738 7296 50  0000 L CNN
F 1 "220" H 4738 7205 50  0000 L CNN
F 2 "Modum:R_Array_Convex_4x0603" V 4570 7250 50  0001 C CNN
F 3 "https://pl.mouser.com/datasheet/2/315/AOC0000C14-1108062.pdf" H 4650 7250 50  0001 C CNN
	4    4650 7250
	-1   0    0    -1  
$EndComp
$Comp
L Connector:Conn_Coaxial J12
U 1 1 62143155
P 10550 6050
F 0 "J12" H 10650 6025 50  0000 L CNN
F 1 "Conn_Coaxial" H 10650 5934 50  0000 L CNN
F 2 "Modum_footprints:RCA_156-009x-E" H 10550 6050 50  0001 C CNN
F 3 "https://pl.mouser.com/datasheet/2/209/KC_301520-2836000.pdf" H 10550 6050 50  0001 C CNN
	1    10550 6050
	1    0    0    -1  
$EndComp
$Comp
L Connector:Conn_Coaxial J11
U 1 1 6214BF7C
P 10550 5350
F 0 "J11" H 10650 5325 50  0000 L CNN
F 1 "Conn_Coaxial" H 10650 5234 50  0000 L CNN
F 2 "Modum_footprints:RCA_156-009x-E" H 10550 5350 50  0001 C CNN
F 3 "https://pl.mouser.com/datasheet/2/209/KC_301520-2836000.pdf" H 10550 5350 50  0001 C CNN
	1    10550 5350
	1    0    0    -1  
$EndComp
$Comp
L power:GND #PWR?
U 1 1 6214FF21
P 10550 5550
F 0 "#PWR?" H 10550 5300 50  0001 C CNN
F 1 "GND" H 10555 5377 50  0000 C CNN
F 2 "" H 10550 5550 50  0001 C CNN
F 3 "" H 10550 5550 50  0001 C CNN
	1    10550 5550
	1    0    0    -1  
$EndComp
$Comp
L power:GND #PWR?
U 1 1 621515A1
P 10550 6250
F 0 "#PWR?" H 10550 6000 50  0001 C CNN
F 1 "GND" H 10555 6077 50  0000 C CNN
F 2 "" H 10550 6250 50  0001 C CNN
F 3 "" H 10550 6250 50  0001 C CNN
	1    10550 6250
	1    0    0    -1  
$EndComp
Text Notes 10350 5050 0    50   ~ 0
Wyjscia audio
$Comp
L Connector:TestPoint TP12
U 1 1 621704A4
P 10350 5150
F 0 "TP12" V 10304 5338 50  0000 L CNN
F 1 "TestPoint" V 10395 5338 50  0000 L CNN
F 2 "TestPoint:TestPoint_THTPad_D2.5mm_Drill1.2mm" H 10550 5150 50  0001 C CNN
F 3 "~" H 10550 5150 50  0001 C CNN
	1    10350 5150
	0    1    1    0   
$EndComp
$Comp
L Connector:TestPoint TP13
U 1 1 62172393
P 10350 5850
F 0 "TP13" V 10304 6038 50  0000 L CNN
F 1 "TestPoint" V 10395 6038 50  0000 L CNN
F 2 "TestPoint:TestPoint_THTPad_D2.5mm_Drill1.2mm" H 10550 5850 50  0001 C CNN
F 3 "~" H 10550 5850 50  0001 C CNN
	1    10350 5850
	0    1    1    0   
$EndComp
Wire Wire Line
	10350 5150 10300 5150
Wire Wire Line
	10300 5150 10300 5350
Wire Wire Line
	10300 5350 10350 5350
Connection ~ 10300 5350
Wire Wire Line
	10350 5850 10300 5850
Wire Wire Line
	10300 5850 10300 6050
Wire Wire Line
	10300 6050 10350 6050
Text Notes 7050 6650 0    50   ~ 0
Przy annotate pilnowac by nie zmieniac kolejnosci elementow multipart!!!
Wire Wire Line
	1400 3900 1900 3900
Wire Wire Line
	1400 3800 1900 3800
Wire Wire Line
	1400 4100 1900 4100
Wire Wire Line
	1400 4000 1900 4000
Wire Wire Line
	1400 4200 1900 4200
Wire Wire Line
	850  4300 1900 4300
Wire Wire Line
	850  4000 900  4000
Wire Wire Line
	900  4100 800  4100
Wire Wire Line
	800  4100 800  4350
Wire Wire Line
	800  4350 1850 4350
Wire Wire Line
	3850 1350 3850 1100
Wire Wire Line
	3850 1450 3850 1350
Connection ~ 3850 1350
Text GLabel 3850 1450 3    50   UnSpc ~ 0
SWDIO
Text GLabel 3750 1450 3    50   UnSpc ~ 0
SWDCLK
Wire Wire Line
	3850 1350 4000 1350
Wire Wire Line
	4000 1350 4000 3300
Wire Wire Line
	3750 1100 3750 1400
Wire Wire Line
	3750 1400 4050 1400
Connection ~ 3750 1400
Wire Wire Line
	3750 1400 3750 1450
Wire Wire Line
	4050 1400 4050 1700
Wire Wire Line
	4350 1650 4350 1700
Wire Wire Line
	4050 1700 4350 1700
Connection ~ 4050 1700
Wire Wire Line
	4050 1700 4050 3400
Connection ~ 4350 1700
Wire Wire Line
	4350 1700 4350 1750
Wire Wire Line
	1400 2100 1450 2100
Wire Wire Line
	1450 2100 1450 2150
Wire Wire Line
	1450 2150 1550 2150
Wire Wire Line
	1550 2150 1550 2200
Wire Wire Line
	1550 2200 1900 2200
Wire Wire Line
	1400 2200 1500 2200
Wire Wire Line
	1500 2200 1500 2100
Wire Wire Line
	1500 2100 1900 2100
Wire Wire Line
	7250 2250 7300 2250
Wire Wire Line
	7300 2250 7300 2350
Wire Wire Line
	6550 2150 6750 2150
Wire Wire Line
	6450 2350 7300 2350
$Comp
L Jumper:SolderJumper_2_Bridged JP7
U 1 1 61F25577
P 8450 2050
F 0 "JP7" H 8450 1900 50  0000 C CNN
F 1 "SolderJumper_2_Bridged" H 8450 1950 50  0000 C CNN
F 2 "Jumper:SolderJumper-2_P1.3mm_Bridged_RoundedPad1.0x1.5mm" H 8450 2050 50  0001 C CNN
F 3 "~" H 8450 2050 50  0001 C CNN
	1    8450 2050
	-1   0    0    1   
$EndComp
Wire Wire Line
	7950 2000 7950 2050
Wire Wire Line
	7250 2050 7950 2050
Wire Wire Line
	7950 2050 8300 2050
Connection ~ 7950 2050
NoConn ~ 8600 2050
$Comp
L Device:LED_Small D3
U 1 1 61CE1EA6
P 3600 7500
F 0 "D3" V 3646 7430 50  0000 R CNN
F 1 "R/G" V 3555 7430 50  0000 R CNN
F 2 "LED_SMD:LED_0603_1608Metric_Pad1.05x0.95mm_HandSolder" V 3600 7500 50  0001 C CNN
F 3 "~" V 3600 7500 50  0001 C CNN
	1    3600 7500
	0    1    -1   0   
$EndComp
$Comp
L Device:LED_Small D1
U 1 1 61C105A0
P 4300 7500
F 0 "D1" V 4346 7430 50  0000 R CNN
F 1 "R/G" V 4255 7430 50  0000 R CNN
F 2 "LED_SMD:LED_0603_1608Metric_Pad1.05x0.95mm_HandSolder" V 4300 7500 50  0001 C CNN
F 3 "~" V 4300 7500 50  0001 C CNN
	1    4300 7500
	0    1    -1   0   
$EndComp
$Comp
L Device:R_Small R10
U 1 1 61CEE20D
P 5900 4950
F 0 "R10" H 5959 4996 50  0000 L CNN
F 1 "4.7k" H 5959 4905 50  0000 L CNN
F 2 "Resistor_SMD:R_0603_1608Metric_Pad0.98x0.95mm_HandSolder" H 5900 4950 50  0001 C CNN
F 3 "~" H 5900 4950 50  0001 C CNN
	1    5900 4950
	1    0    0    1   
$EndComp
$Comp
L Device:R_Small R9
U 1 1 61CFE8FC
P 5650 4950
F 0 "R9" H 5709 4996 50  0000 L CNN
F 1 "4.7k" H 5709 4905 50  0000 L CNN
F 2 "Resistor_SMD:R_0603_1608Metric_Pad0.98x0.95mm_HandSolder" H 5650 4950 50  0001 C CNN
F 3 "~" H 5650 4950 50  0001 C CNN
	1    5650 4950
	-1   0    0    1   
$EndComp
Wire Wire Line
	5650 5050 5650 5100
Wire Wire Line
	5900 5050 5900 5200
$Comp
L power:+3.3V #PWR?
U 1 1 61D3B301
P 5900 4850
F 0 "#PWR?" H 5900 4700 50  0001 C CNN
F 1 "+3.3V" H 5915 5023 50  0000 C CNN
F 2 "" H 5900 4850 50  0001 C CNN
F 3 "" H 5900 4850 50  0001 C CNN
	1    5900 4850
	1    0    0    -1  
$EndComp
$Comp
L power:+3.3V #PWR?
U 1 1 61D3C424
P 5650 4850
F 0 "#PWR?" H 5650 4700 50  0001 C CNN
F 1 "+3.3V" H 5665 5023 50  0000 C CNN
F 2 "" H 5650 4850 50  0001 C CNN
F 3 "" H 5650 4850 50  0001 C CNN
	1    5650 4850
	1    0    0    -1  
$EndComp
Connection ~ 5650 5100
Wire Wire Line
	5650 5100 6400 5100
NoConn ~ 1900 2400
NoConn ~ 1900 2500
NoConn ~ 1900 2800
NoConn ~ 1900 2900
NoConn ~ 1900 3200
NoConn ~ 1900 3300
NoConn ~ 1900 3400
NoConn ~ 1900 3500
NoConn ~ 1900 5000
NoConn ~ 3700 3500
NoConn ~ 3700 2700
NoConn ~ 3700 2600
NoConn ~ 3700 2300
NoConn ~ 3700 2200
NoConn ~ 3700 2100
NoConn ~ 3700 2000
Text GLabel 9400 700  2    50   Input ~ 0
+9V
Wire Wire Line
	7950 3450 8000 3450
$Comp
L Device:R R16
U 1 1 62526366
P 7800 3450
F 0 "R16" V 7900 3400 50  0000 L CNN
F 1 "500k" V 7700 3300 50  0000 L CNN
F 2 "Resistor_SMD:R_0603_1608Metric_Pad0.98x0.95mm_HandSolder" V 7730 3450 50  0001 C CNN
F 3 "~" H 7800 3450 50  0001 C CNN
	1    7800 3450
	0    1    -1   0   
$EndComp
Wire Wire Line
	10500 3250 10500 3400
Wire Wire Line
	10300 3250 10500 3250
$Comp
L Device:CP1 C13
U 1 1 6231C342
P 8750 3350
F 0 "C13" V 8600 3300 50  0000 L CNN
F 1 "100u" V 8900 3250 50  0000 L CNN
F 2 "Capacitor_THT:CP_Radial_D5.0mm_P2.00mm" H 8750 3350 50  0001 C CNN
F 3 "https://pl.mouser.com/datasheet/2/445/860010372006-1725314.pdf" H 8750 3350 50  0001 C CNN
	1    8750 3350
	0    1    1    0   
$EndComp
Wire Wire Line
	10200 2300 10150 2300
Text GLabel 11100 1375 0    50   Input ~ 0
+5V
Wire Wire Line
	11100 1950 11100 2000
Wire Wire Line
	10400 3350 10300 3350
Wire Wire Line
	10200 1950 10800 1950
Wire Wire Line
	10200 2100 10200 1950
$Comp
L Transistor_BJT:BC857 Q4
U 1 1 6208A697
P 11000 2200
F 0 "Q4" H 10900 2350 50  0000 L CNN
F 1 "BC857" H 10800 2050 50  0000 L CNN
F 2 "Package_TO_SOT_SMD:SOT-23" H 11200 2125 50  0001 L CIN
F 3 "https://www.mouser.pl/datasheet/2/916/BC856_BC857_BC858-1598651.pdf" H 11000 2200 50  0001 L CNN
	1    11000 2200
	1    0    0    1   
$EndComp
$Comp
L Device:R R49
U 1 1 62009815
P 10500 3550
F 0 "R49" H 10431 3504 50  0000 R CNN
F 1 "100k" H 10431 3595 50  0000 R CNN
F 2 "Resistor_SMD:R_0603_1608Metric_Pad0.98x0.95mm_HandSolder" V 10430 3550 50  0001 C CNN
F 3 "~" H 10500 3550 50  0001 C CNN
	1    10500 3550
	1    0    0    1   
$EndComp
$Comp
L power:GND #PWR?
U 1 1 61FC594D
P 9650 3700
F 0 "#PWR?" H 9650 3450 50  0001 C CNN
F 1 "GND" H 9655 3527 50  0000 C CNN
F 2 "" H 9650 3700 50  0001 C CNN
F 3 "" H 9650 3700 50  0001 C CNN
	1    9650 3700
	-1   0    0    -1  
$EndComp
Wire Wire Line
	9650 3150 9450 3150
Connection ~ 9650 3150
Wire Wire Line
	9650 3400 9650 3150
$Comp
L Device:CP1 C16
U 1 1 61FA2C73
P 9650 3550
F 0 "C16" H 9800 3600 50  0000 L CNN
F 1 "220u" H 9800 3450 50  0000 L CNN
F 2 "Capacitor_THT:CP_Radial_D6.3mm_P2.50mm" H 9650 3550 50  0001 C CNN
F 3 "https://www.mouser.pl/datasheet/2/445/860010373010-1725375.pdf" H 9650 3550 50  0001 C CNN
	1    9650 3550
	1    0    0    -1  
$EndComp
Text GLabel 9100 3200 1    50   Input ~ 0
+9V
$Comp
L Device:R R37
U 1 1 61F478E2
P 9250 3250
F 0 "R37" V 9150 3300 50  0000 R CNN
F 1 "3.9k" V 9350 3300 50  0000 R CNN
F 2 "Resistor_SMD:R_0603_1608Metric_Pad0.98x0.95mm_HandSolder" V 9180 3250 50  0001 C CNN
F 3 "~" H 9250 3250 50  0001 C CNN
	1    9250 3250
	0    -1   1    0   
$EndComp
Wire Wire Line
	9450 3150 9450 3400
Wire Wire Line
	9700 3150 9650 3150
$Comp
L Device:R R43
U 1 1 61E8F60C
P 9450 3550
F 0 "R43" H 9600 3600 50  0000 R CNN
F 1 "1k" H 9600 3500 50  0000 R CNN
F 2 "Resistor_SMD:R_0603_1608Metric_Pad0.98x0.95mm_HandSolder" V 9380 3550 50  0001 C CNN
F 3 "~" H 9450 3550 50  0001 C CNN
	1    9450 3550
	-1   0    0    -1  
$EndComp
$Comp
L Amplifier_Operational:LM13700 U6
U 1 1 61D835F5
P 10000 3250
F 0 "U6" H 10000 3617 50  0000 C CNN
F 1 "LM13700" H 10000 3526 50  0000 C CNN
F 2 "Package_SO:SOIC-16_3.9x9.9mm_P1.27mm" H 9700 3275 50  0001 C CNN
F 3 "https://www.ti.com/lit/ds/symlink/lm13700.pdf?HQS=dis-mous-null-mousermode-dsf-pf-null-wwe&ts=1641620132097&ref_url=https%253A%252F%252Fwww.mouser.com%252F" H 9700 3275 50  0001 C CNN
	1    10000 3250
	1    0    0    -1  
$EndComp
Text GLabel 8500 800  2    50   Input ~ 0
+5V
$Comp
L Device:D_Zener D5
U 1 1 628363C9
P 8825 1250
F 0 "D5" V 8850 1325 50  0000 L CNN
F 1 "4.3V" V 8950 1250 50  0000 L CNN
F 2 "Diode_SMD:D_SOD-123" H 8825 1250 50  0001 C CNN
F 3 "https://www.mouser.pl/datasheet/2/308/1/MMSZ5221BT1_D-2316205.pdf" H 8825 1250 50  0001 C CNN
	1    8825 1250
	0    1    1    0   
$EndComp
Text GLabel 9175 1100 1    50   Input ~ 0
+4.3V
Wire Notes Line
	11200 500  11200 6500
Wire Wire Line
	8500 700  8825 700 
Text GLabel 8000 4000 0    50   Input ~ 0
+4.3V
$Comp
L Device:CP1 C14
U 1 1 62CDC8EE
P 9075 1300
F 0 "C14" H 9125 1375 50  0000 L CNN
F 1 "220u" H 9100 1175 50  0000 L CNN
F 2 "Capacitor_THT:CP_Radial_D6.3mm_P2.50mm" H 9075 1300 50  0001 C CNN
F 3 "https://www.mouser.pl/datasheet/2/445/860010373010-1725375.pdf" H 9075 1300 50  0001 C CNN
	1    9075 1300
	1    0    0    -1  
$EndComp
Wire Wire Line
	8825 1100 9075 1100
Wire Wire Line
	9075 1100 9075 1150
Connection ~ 9075 1100
Wire Wire Line
	9075 1100 9175 1100
$Comp
L power:GND #PWR?
U 1 1 62D8A29A
P 9075 1450
F 0 "#PWR?" H 9075 1200 50  0001 C CNN
F 1 "GND" H 9080 1277 50  0000 C CNN
F 2 "" H 9075 1450 50  0001 C CNN
F 3 "" H 9075 1450 50  0001 C CNN
	1    9075 1450
	-1   0    0    -1  
$EndComp
Wire Wire Line
	9075 1450 8825 1450
Wire Wire Line
	8825 1450 8825 1400
Connection ~ 9075 1450
Wire Wire Line
	10500 3250 10550 3250
Connection ~ 10500 3250
Wire Wire Line
	10150 4700 10150 5350
Wire Wire Line
	10150 5350 10300 5350
Wire Wire Line
	10550 2725 11150 2725
Wire Wire Line
	8600 3000 8600 3350
Wire Wire Line
	11100 2600 11100 2400
Wire Wire Line
	10400 2600 10400 3350
$Comp
L Modum:TSX7192 U7
U 2 1 61E82B63
P 9800 2300
F 0 "U7" H 9800 2667 50  0000 C CNN
F 1 "MAX44251" H 9800 2576 50  0000 C CNN
F 2 "Package_SO:MSOP-8_3x3mm_P0.65mm" H 9800 2300 50  0001 C CNN
F 3 "https://www.mouser.pl/datasheet/2/256/MAX44250-MAX44252-1292083.pdf?fbclid=IwAR3IDk3T1fuLiueNwZxDKUV8HR6Qzys5mp2ZaP_C6ihii_mOct90odM4W1g" H 9800 2300 50  0001 C CNN
	2    9800 2300
	1    0    0    -1  
$EndComp
Wire Wire Line
	9400 3250 9700 3250
Wire Wire Line
	10150 2300 10150 2600
Wire Wire Line
	10150 2600 9950 2600
Wire Wire Line
	10150 2300 10100 2300
Wire Wire Line
	9500 2600 9500 2400
$Comp
L power:GND #PWR?
U 1 1 6204A3A1
P 9500 2800
F 0 "#PWR?" H 9500 2550 50  0001 C CNN
F 1 "GND" H 9350 2750 50  0000 C CNN
F 2 "" H 9500 2800 50  0001 C CNN
F 3 "" H 9500 2800 50  0001 C CNN
	1    9500 2800
	-1   0    0    -1  
$EndComp
Text GLabel 9250 2200 0    50   Input ~ 0
+1.8V
$Comp
L Modum:TSX7192 U7
U 1 1 6215D990
P 10500 2200
F 0 "U7" H 10450 2400 50  0000 C CNN
F 1 "MAX44251" H 10500 2000 50  0000 C CNN
F 2 "Package_SO:MSOP-8_3x3mm_P0.65mm" H 10500 2200 50  0001 C CNN
F 3 "https://www.mouser.pl/datasheet/2/256/MAX44250-MAX44252-1292083.pdf?fbclid=IwAR3IDk3T1fuLiueNwZxDKUV8HR6Qzys5mp2ZaP_C6ihii_mOct90odM4W1g" H 10500 2200 50  0001 C CNN
	1    10500 2200
	1    0    0    1   
$EndComp
$Comp
L Device:R_Small R46
U 1 1 622465C9
P 9850 2600
F 0 "R46" V 9950 2550 50  0000 L CNN
F 1 "10k" V 9750 2550 50  0000 L CNN
F 2 "Resistor_SMD:R_0603_1608Metric_Pad0.98x0.95mm_HandSolder" H 9850 2600 50  0001 C CNN
F 3 "~" H 9850 2600 50  0001 C CNN
	1    9850 2600
	0    1    -1   0   
$EndComp
$Comp
L Device:R_Small R45
U 1 1 622F9537
P 9500 2700
F 0 "R45" H 9550 2650 50  0000 L CNN
F 1 "10k" H 9550 2750 50  0000 L CNN
F 2 "Resistor_SMD:R_0603_1608Metric_Pad0.98x0.95mm_HandSolder" H 9500 2700 50  0001 C CNN
F 3 "~" H 9500 2700 50  0001 C CNN
	1    9500 2700
	1    0    0    1   
$EndComp
Wire Wire Line
	9500 2600 9750 2600
$Comp
L Device:R_Small R41
U 1 1 62354A81
P 9350 2450
F 0 "R41" V 9450 2400 50  0000 L CNN
F 1 "10k" V 9250 2400 50  0000 L CNN
F 2 "Resistor_SMD:R_0603_1608Metric_Pad0.98x0.95mm_HandSolder" H 9350 2450 50  0001 C CNN
F 3 "~" H 9350 2450 50  0001 C CNN
	1    9350 2450
	0    1    -1   0   
$EndComp
$Comp
L Device:R_Small R40
U 1 1 623D8152
P 9350 2200
F 0 "R40" V 9450 2150 50  0000 L CNN
F 1 "10k" V 9250 2150 50  0000 L CNN
F 2 "Resistor_SMD:R_0603_1608Metric_Pad0.98x0.95mm_HandSolder" H 9350 2200 50  0001 C CNN
F 3 "~" H 9350 2200 50  0001 C CNN
	1    9350 2200
	0    1    -1   0   
$EndComp
Wire Wire Line
	9500 2200 9450 2200
Wire Wire Line
	9450 2200 9450 2450
$Comp
L Device:R_Small R35
U 1 1 62460733
P 9250 2600
F 0 "R35" H 9300 2550 50  0000 L CNN
F 1 "0R" H 9300 2650 50  0000 L CNN
F 2 "Resistor_SMD:R_0603_1608Metric_Pad0.98x0.95mm_HandSolder" H 9250 2600 50  0001 C CNN
F 3 "~" H 9250 2600 50  0001 C CNN
	1    9250 2600
	-1   0    0    1   
$EndComp
Wire Wire Line
	9250 2450 9250 2500
Wire Wire Line
	9250 2450 9200 2450
Connection ~ 9250 2450
$Comp
L Device:R_Small R36
U 1 1 624EE195
P 9250 2850
F 0 "R36" H 9300 2800 50  0000 L CNN
F 1 "DNP" H 9300 2900 50  0000 L CNN
F 2 "Resistor_SMD:R_0603_1608Metric_Pad0.98x0.95mm_HandSolder" H 9250 2850 50  0001 C CNN
F 3 "~" H 9250 2850 50  0001 C CNN
	1    9250 2850
	1    0    0    1   
$EndComp
Wire Wire Line
	9250 2700 9250 2750
Wire Wire Line
	9250 2750 8600 2750
Wire Wire Line
	8600 2750 8600 2550
Connection ~ 9250 2750
$Comp
L power:GND #PWR?
U 1 1 625A609F
P 9250 2950
F 0 "#PWR?" H 9250 2700 50  0001 C CNN
F 1 "GND" H 9100 2900 50  0000 C CNN
F 2 "" H 9250 2950 50  0001 C CNN
F 3 "" H 9250 2950 50  0001 C CNN
	1    9250 2950
	-1   0    0    -1  
$EndComp
Wire Wire Line
	10400 2600 11100 2600
Connection ~ 9500 2600
Connection ~ 10150 2300
Connection ~ 9450 2200
$Comp
L Device:R_Small R30
U 1 1 626928EA
P 8525 2575
F 0 "R30" H 8575 2500 50  0000 L CNN
F 1 "DNP" H 8575 2575 50  0000 L CNN
F 2 "Resistor_SMD:R_0603_1608Metric_Pad0.98x0.95mm_HandSolder" H 8525 2575 50  0001 C CNN
F 3 "~" H 8525 2575 50  0001 C CNN
	1    8525 2575
	-1   0    0    1   
$EndComp
$Comp
L Device:R_Small R29
U 1 1 626BF952
P 8350 2350
F 0 "R29" V 8425 2300 50  0000 L CNN
F 1 "0R" V 8275 2300 50  0000 L CNN
F 2 "Resistor_SMD:R_0603_1608Metric_Pad0.98x0.95mm_HandSolder" H 8350 2350 50  0001 C CNN
F 3 "~" H 8350 2350 50  0001 C CNN
	1    8350 2350
	0    -1   -1   0   
$EndComp
Wire Wire Line
	8600 2350 8525 2350
Wire Wire Line
	8525 2350 8525 2475
Wire Wire Line
	8450 2350 8525 2350
Connection ~ 8525 2350
$Comp
L Connector:TestPoint TP21
U 1 1 627AB6EE
P 8525 2675
F 0 "TP21" V 8525 2875 50  0000 L CNN
F 1 "TestPt" V 8625 2800 50  0000 L CNN
F 2 "TestPoint:TestPoint_THTPad_D2.5mm_Drill1.2mm" H 8725 2675 50  0001 C CNN
F 3 "~" H 8725 2675 50  0001 C CNN
	1    8525 2675
	0    -1   1    0   
$EndComp
$Comp
L Connector:TestPoint TP20
U 1 1 62808969
P 8525 2350
F 0 "TP20" H 8350 2475 50  0000 L CNN
F 1 "TestPt" H 8400 2550 50  0000 L CNN
F 2 "TestPoint:TestPoint_THTPad_D2.5mm_Drill1.2mm" H 8725 2350 50  0001 C CNN
F 3 "~" H 8725 2350 50  0001 C CNN
	1    8525 2350
	-1   0    0    -1  
$EndComp
$Comp
L Connector:TestPoint TP19
U 1 1 62836844
P 8150 2350
F 0 "TP19" H 7975 2500 50  0000 L CNN
F 1 "TestPt" H 8175 2400 50  0000 L CNN
F 2 "TestPoint:TestPoint_THTPad_D2.5mm_Drill1.2mm" H 8350 2350 50  0001 C CNN
F 3 "~" H 8350 2350 50  0001 C CNN
	1    8150 2350
	-1   0    0    -1  
$EndComp
Wire Wire Line
	6550 2150 6550 2450
$Comp
L Jumper:SolderJumper_2_Bridged JP2
U 1 1 6248867D
P 7700 2450
F 0 "JP2" H 7700 2550 50  0000 C CNN
F 1 "SolderJumper_2_Bridged" H 8050 2600 50  0000 C CNN
F 2 "Jumper:SolderJumper-2_P1.3mm_Bridged_RoundedPad1.0x1.5mm" H 7700 2450 50  0001 C CNN
F 3 "~" H 7700 2450 50  0001 C CNN
	1    7700 2450
	-1   0    0    1   
$EndComp
$Comp
L Jumper:SolderJumper_2_Bridged JP1
U 1 1 62488677
P 7700 2350
F 0 "JP1" H 7700 2250 50  0000 C CNN
F 1 "SolderJumper_2_Bridged" H 7600 2125 50  0000 C CNN
F 2 "Jumper:SolderJumper-2_P1.3mm_Bridged_RoundedPad1.0x1.5mm" H 7700 2350 50  0001 C CNN
F 3 "~" H 7700 2350 50  0001 C CNN
	1    7700 2350
	-1   0    0    1   
$EndComp
Wire Wire Line
	6550 2450 7550 2450
Connection ~ 6550 2450
Wire Wire Line
	6550 2450 6550 3000
Wire Wire Line
	7300 2350 7550 2350
Connection ~ 7300 2350
Wire Wire Line
	7850 2350 8150 2350
$Comp
L Connector:TestPoint TP30
U 1 1 62929AAB
P 10150 2300
F 0 "TP30" H 10200 2400 50  0000 L CNN
F 1 "TestPt" H 10150 2500 50  0000 L CNN
F 2 "TestPoint:TestPoint_THTPad_D2.5mm_Drill1.2mm" H 10350 2300 50  0001 C CNN
F 3 "~" H 10350 2300 50  0001 C CNN
	1    10150 2300
	-1   0    0    -1  
$EndComp
$Comp
L Device:R_Small R51
U 1 1 6295A208
P 11100 1550
F 0 "R51" H 11150 1500 50  0000 L CNN
F 1 "0R" H 11150 1600 50  0000 L CNN
F 2 "Resistor_SMD:R_0603_1608Metric_Pad0.98x0.95mm_HandSolder" H 11100 1550 50  0001 C CNN
F 3 "~" H 11100 1550 50  0001 C CNN
	1    11100 1550
	-1   0    0    1   
$EndComp
Wire Wire Line
	11100 1375 11100 1450
$Comp
L Connector:TestPoint TP34
U 1 1 629E5004
P 10800 1950
F 0 "TP34" H 10850 2075 50  0000 L CNN
F 1 "TestPt" H 10750 2175 50  0000 L CNN
F 2 "TestPoint:TestPoint_THTPad_D2.5mm_Drill1.2mm" H 11000 1950 50  0001 C CNN
F 3 "~" H 11000 1950 50  0001 C CNN
	1    10800 1950
	-1   0    0    -1  
$EndComp
$Comp
L Connector:TestPoint TP35
U 1 1 62A12BC5
P 10975 1650
F 0 "TP35" V 10875 1700 50  0000 L CNN
F 1 "TestPt" V 10925 1850 50  0000 L CNN
F 2 "TestPoint:TestPoint_THTPad_D2.5mm_Drill1.2mm" H 11175 1650 50  0001 C CNN
F 3 "~" H 11175 1650 50  0001 C CNN
	1    10975 1650
	0    -1   1    0   
$EndComp
Wire Wire Line
	11100 1650 10975 1650
$Comp
L Device:R_Small R33
U 1 1 62A70FD9
P 9100 3450
F 0 "R33" H 9150 3400 50  0000 L CNN
F 1 "500" H 9150 3500 50  0000 L CNN
F 2 "Resistor_SMD:R_0603_1608Metric_Pad0.98x0.95mm_HandSolder" H 9100 3450 50  0001 C CNN
F 3 "~" H 9100 3450 50  0001 C CNN
	1    9100 3450
	-1   0    0    1   
$EndComp
$Comp
L Device:R_POT_Small RV2
U 1 1 62A9FA70
P 9100 3675
F 0 "RV2" H 9040 3721 50  0000 R CNN
F 1 "1k" H 9040 3630 50  0000 R CNN
F 2 "JC-lib-foot:SRP-RKT6V-Pot-moje" H 9100 3675 50  0001 C CNN
F 3 "https://www.tme.eu/Document/c7795bc02d96e9fb1d7a87e678e993d2/RKT6V-H.pdf" H 9100 3675 50  0001 C CNN
	1    9100 3675
	-1   0    0    -1  
$EndComp
Wire Wire Line
	8000 4000 9100 4000
$Comp
L Device:R_Small R34
U 1 1 62AFB671
P 9100 3875
F 0 "R34" H 9150 3825 50  0000 L CNN
F 1 "0R" H 9150 3925 50  0000 L CNN
F 2 "Resistor_SMD:R_0603_1608Metric_Pad0.98x0.95mm_HandSolder" H 9100 3875 50  0001 C CNN
F 3 "~" H 9100 3875 50  0001 C CNN
	1    9100 3875
	-1   0    0    1   
$EndComp
Wire Wire Line
	9100 3975 9100 4000
Connection ~ 9100 4000
Wire Wire Line
	9100 3575 9000 3575
Wire Wire Line
	9000 3575 9000 3675
Wire Wire Line
	9100 3550 9100 3575
Connection ~ 9100 3575
Wire Wire Line
	8900 3350 8950 3350
Wire Wire Line
	9100 3350 9700 3350
Connection ~ 9100 3350
Wire Wire Line
	9100 4000 9450 4000
$Comp
L Device:R_Small R44
U 1 1 62C1277B
P 9450 3875
F 0 "R44" H 9500 3825 50  0000 L CNN
F 1 "0R" H 9500 3925 50  0000 L CNN
F 2 "Resistor_SMD:R_0603_1608Metric_Pad0.98x0.95mm_HandSolder" H 9450 3875 50  0001 C CNN
F 3 "~" H 9450 3875 50  0001 C CNN
	1    9450 3875
	-1   0    0    1   
$EndComp
Wire Wire Line
	9450 4000 9450 3975
Connection ~ 9450 4000
Wire Wire Line
	9450 4000 10500 4000
Wire Wire Line
	9450 3775 9450 3700
$Comp
L power:GND #PWR?
U 1 1 62C9F032
P 8200 3650
F 0 "#PWR?" H 8200 3400 50  0001 C CNN
F 1 "GND" H 8050 3600 50  0000 C CNN
F 2 "" H 8200 3650 50  0001 C CNN
F 3 "" H 8200 3650 50  0001 C CNN
	1    8200 3650
	-1   0    0    -1  
$EndComp
Text GLabel 8100 2950 0    50   Input ~ 0
+9V
$Comp
L power:GND #PWR?
U 1 1 62D2A06F
P 10750 3450
F 0 "#PWR?" H 10750 3200 50  0001 C CNN
F 1 "GND" H 10875 3425 50  0000 C CNN
F 2 "" H 10750 3450 50  0001 C CNN
F 3 "" H 10750 3450 50  0001 C CNN
	1    10750 3450
	-1   0    0    -1  
$EndComp
$Comp
L Device:R_Small R50
U 1 1 62D58230
P 10500 3850
F 0 "R50" H 10550 3800 50  0000 L CNN
F 1 "0R" H 10550 3900 50  0000 L CNN
F 2 "Resistor_SMD:R_0603_1608Metric_Pad0.98x0.95mm_HandSolder" H 10500 3850 50  0001 C CNN
F 3 "~" H 10500 3850 50  0001 C CNN
	1    10500 3850
	-1   0    0    1   
$EndComp
Wire Wire Line
	10500 4000 10500 3950
Wire Wire Line
	10500 3750 10500 3725
$Comp
L Connector:TestPoint TP33
U 1 1 62E15C35
P 10500 4000
F 0 "TP33" V 10400 4100 50  0000 L CNN
F 1 "TestPt" V 10500 4200 50  0000 L CNN
F 2 "TestPoint:TestPoint_THTPad_D2.5mm_Drill1.2mm" H 10700 4000 50  0001 C CNN
F 3 "~" H 10700 4000 50  0001 C CNN
	1    10500 4000
	0    1    -1   0   
$EndComp
$Comp
L Connector:TestPoint TP32
U 1 1 62E44376
P 10500 3725
F 0 "TP32" V 10400 3825 50  0000 L CNN
F 1 "TestPt" V 10500 3925 50  0000 L CNN
F 2 "TestPoint:TestPoint_THTPad_D2.5mm_Drill1.2mm" H 10700 3725 50  0001 C CNN
F 3 "~" H 10700 3725 50  0001 C CNN
	1    10500 3725
	0    1    -1   0   
$EndComp
Connection ~ 10500 3725
Wire Wire Line
	10500 3725 10500 3700
$Comp
L Connector:TestPoint TP22
U 1 1 62E7462C
P 8600 3000
F 0 "TP22" V 8525 3075 50  0000 L CNN
F 1 "TestPt" V 8675 3025 50  0000 L CNN
F 2 "TestPoint:TestPoint_THTPad_D2.5mm_Drill1.2mm" H 8800 3000 50  0001 C CNN
F 3 "~" H 8800 3000 50  0001 C CNN
	1    8600 3000
	0    1    -1   0   
$EndComp
Wire Wire Line
	9100 3250 9100 3200
$Comp
L Connector:TestPoint TP23
U 1 1 62ED4F2C
P 8950 3350
F 0 "TP23" V 9000 3550 50  0000 L CNN
F 1 "TestPt" V 8900 3550 50  0000 L CNN
F 2 "TestPoint:TestPoint_THTPad_D2.5mm_Drill1.2mm" H 9150 3350 50  0001 C CNN
F 3 "~" H 9150 3350 50  0001 C CNN
	1    8950 3350
	-1   0    0    -1  
$EndComp
Connection ~ 8950 3350
Wire Wire Line
	8950 3350 9100 3350
$Comp
L Device:R_Small R19
U 1 1 62F0556E
P 8000 3625
F 0 "R19" H 8050 3575 50  0000 L CNN
F 1 "5k" H 8050 3675 50  0000 L CNN
F 2 "Resistor_SMD:R_0603_1608Metric_Pad0.98x0.95mm_HandSolder" H 8000 3625 50  0001 C CNN
F 3 "~" H 8000 3625 50  0001 C CNN
	1    8000 3625
	-1   0    0    1   
$EndComp
$Comp
L Device:R_Small R20
U 1 1 62F3489C
P 8000 3825
F 0 "R20" H 8050 3775 50  0000 L CNN
F 1 "0R" H 8050 3875 50  0000 L CNN
F 2 "Resistor_SMD:R_0603_1608Metric_Pad0.98x0.95mm_HandSolder" H 8000 3825 50  0001 C CNN
F 3 "~" H 8000 3825 50  0001 C CNN
	1    8000 3825
	-1   0    0    1   
$EndComp
Wire Wire Line
	8000 3525 8000 3450
Wire Wire Line
	8000 3925 8000 4000
Wire Wire Line
	10150 4700 11150 4700
Connection ~ 5900 5200
Wire Wire Line
	6600 3100 6600 5200
Wire Wire Line
	6750 5900 6800 5900
$Comp
L Device:R R11
U 1 1 630C3B4C
P 6600 5900
F 0 "R11" V 6700 5850 50  0000 L CNN
F 1 "500k" V 6500 5750 50  0000 L CNN
F 2 "Resistor_SMD:R_0603_1608Metric_Pad0.98x0.95mm_HandSolder" V 6530 5900 50  0001 C CNN
F 3 "~" H 6600 5900 50  0001 C CNN
	1    6600 5900
	0    1    -1   0   
$EndComp
Wire Wire Line
	9300 5700 9300 5850
Wire Wire Line
	9100 5700 9300 5700
$Comp
L Device:CP1 C11
U 1 1 630C3B54
P 7550 5800
F 0 "C11" V 7400 5750 50  0000 L CNN
F 1 "100u" V 7700 5700 50  0000 L CNN
F 2 "Capacitor_THT:CP_Radial_D5.0mm_P2.00mm" H 7550 5800 50  0001 C CNN
F 3 "https://pl.mouser.com/datasheet/2/445/860010372006-1725314.pdf" H 7550 5800 50  0001 C CNN
	1    7550 5800
	0    1    1    0   
$EndComp
Wire Wire Line
	9000 4750 8950 4750
Text GLabel 10325 4150 2    50   Input ~ 0
+5V
Wire Wire Line
	9900 4400 9900 4450
Wire Wire Line
	9200 5800 9100 5800
Wire Wire Line
	9000 4400 9600 4400
Wire Wire Line
	9000 4550 9000 4400
$Comp
L Transistor_BJT:BC857 Q3
U 1 1 630C3B66
P 9800 4650
F 0 "Q3" H 9700 4800 50  0000 L CNN
F 1 "BC857" H 9600 4500 50  0000 L CNN
F 2 "Package_TO_SOT_SMD:SOT-23" H 10000 4575 50  0001 L CIN
F 3 "https://www.mouser.pl/datasheet/2/916/BC856_BC857_BC858-1598651.pdf" H 9800 4650 50  0001 L CNN
	1    9800 4650
	1    0    0    1   
$EndComp
$Comp
L Device:R R38
U 1 1 630C3B6C
P 9300 6000
F 0 "R38" H 9231 5954 50  0000 R CNN
F 1 "100k" H 9231 6045 50  0000 R CNN
F 2 "Resistor_SMD:R_0603_1608Metric_Pad0.98x0.95mm_HandSolder" V 9230 6000 50  0001 C CNN
F 3 "~" H 9300 6000 50  0001 C CNN
	1    9300 6000
	1    0    0    1   
$EndComp
$Comp
L power:GND #PWR?
U 1 1 630C3B72
P 8450 6175
F 0 "#PWR?" H 8450 5925 50  0001 C CNN
F 1 "GND" H 8455 6002 50  0000 C CNN
F 2 "" H 8450 6175 50  0001 C CNN
F 3 "" H 8450 6175 50  0001 C CNN
	1    8450 6175
	-1   0    0    -1  
$EndComp
Wire Wire Line
	8450 5600 8250 5600
Connection ~ 8450 5600
Wire Wire Line
	8450 5850 8450 5600
$Comp
L Device:CP1 C12
U 1 1 630C3B7B
P 8450 6000
F 0 "C12" H 8600 6050 50  0000 L CNN
F 1 "220u" H 8600 5900 50  0000 L CNN
F 2 "Capacitor_THT:CP_Radial_D6.3mm_P2.50mm" H 8450 6000 50  0001 C CNN
F 3 "https://www.mouser.pl/datasheet/2/445/860010373010-1725375.pdf" H 8450 6000 50  0001 C CNN
	1    8450 6000
	1    0    0    -1  
$EndComp
Text GLabel 7900 5650 1    50   Input ~ 0
+9V
$Comp
L Device:R R23
U 1 1 630C3B82
P 8050 5700
F 0 "R23" V 7950 5750 50  0000 R CNN
F 1 "3.9k" V 8150 5750 50  0000 R CNN
F 2 "Resistor_SMD:R_0603_1608Metric_Pad0.98x0.95mm_HandSolder" V 7980 5700 50  0001 C CNN
F 3 "~" H 8050 5700 50  0001 C CNN
	1    8050 5700
	0    -1   1    0   
$EndComp
Wire Wire Line
	8250 5600 8250 5850
Wire Wire Line
	8500 5600 8450 5600
$Comp
L Device:R R26
U 1 1 630C3B8A
P 8250 6000
F 0 "R26" H 8400 6050 50  0000 R CNN
F 1 "1k" H 8400 5950 50  0000 R CNN
F 2 "Resistor_SMD:R_0603_1608Metric_Pad0.98x0.95mm_HandSolder" V 8180 6000 50  0001 C CNN
F 3 "~" H 8250 6000 50  0001 C CNN
	1    8250 6000
	-1   0    0    -1  
$EndComp
Text GLabel 6800 6450 0    50   Input ~ 0
+4.3V
Wire Wire Line
	9300 5700 9350 5700
Connection ~ 9300 5700
$Comp
L Amplifier_Operational:OPA376xxD U9
U 1 1 630C3BB8
P 9650 5600
F 0 "U9" H 9775 5725 50  0000 C CNN
F 1 "OPA376xxD" H 9800 5825 50  0000 C CNN
F 2 "Package_SO:SOIC-8_3.9x4.9mm_P1.27mm" H 9550 5400 50  0001 L CNN
F 3 "http://www.ti.com/lit/ds/symlink/opa376.pdf" H 9800 5750 50  0001 C CNN
	1    9650 5600
	1    0    0    1   
$EndComp
Wire Wire Line
	9350 5150 9950 5150
$Comp
L Amplifier_Operational:OPA376xxD U3
U 1 1 630C3BC1
P 7100 5800
F 0 "U3" H 7125 5650 50  0000 C CNN
F 1 "OPA376xxD" H 7200 6000 50  0000 C CNN
F 2 "Package_SO:SOIC-8_3.9x4.9mm_P1.27mm" H 7000 5600 50  0001 L CNN
F 3 "http://www.ti.com/lit/ds/symlink/opa376.pdf" H 7250 5950 50  0001 C CNN
	1    7100 5800
	1    0    0    1   
$EndComp
Connection ~ 7400 5800
Wire Wire Line
	6800 5350 7400 5350
Wire Wire Line
	7400 5450 7400 5800
$Comp
L Modum:TSX7192 U8
U 1 1 630C3BCB
P 7700 4900
F 0 "U8" H 7625 5150 50  0000 C CNN
F 1 "MAX44251" H 7700 4624 50  0000 C CNN
F 2 "Package_SO:MSOP-8_3x3mm_P0.65mm" H 7700 4900 50  0001 C CNN
F 3 "https://www.mouser.pl/datasheet/2/256/MAX44250-MAX44252-1292083.pdf?fbclid=IwAR3IDk3T1fuLiueNwZxDKUV8HR6Qzys5mp2ZaP_C6ihii_mOct90odM4W1g" H 7700 4900 50  0001 C CNN
	1    7700 4900
	1    0    0    -1  
$EndComp
Wire Wire Line
	9900 5050 9900 4850
Wire Wire Line
	9200 5050 9200 5800
$Comp
L Modum:TSX7192 U4
U 2 1 630C3BD4
P 8600 4750
F 0 "U4" H 8600 5117 50  0000 C CNN
F 1 "MAX44251" H 8600 5026 50  0000 C CNN
F 2 "Package_SO:MSOP-8_3x3mm_P0.65mm" H 8600 4750 50  0001 C CNN
F 3 "https://www.mouser.pl/datasheet/2/256/MAX44250-MAX44252-1292083.pdf?fbclid=IwAR3IDk3T1fuLiueNwZxDKUV8HR6Qzys5mp2ZaP_C6ihii_mOct90odM4W1g" H 8600 4750 50  0001 C CNN
	2    8600 4750
	1    0    0    -1  
$EndComp
Wire Wire Line
	8200 5700 8500 5700
Wire Wire Line
	8950 4750 8950 5050
Wire Wire Line
	8950 5050 8750 5050
Wire Wire Line
	8950 4750 8900 4750
Wire Wire Line
	8300 5050 8300 4850
$Comp
L power:GND #PWR?
U 1 1 630C3BDF
P 8300 5250
F 0 "#PWR?" H 8300 5000 50  0001 C CNN
F 1 "GND" H 8150 5200 50  0000 C CNN
F 2 "" H 8300 5250 50  0001 C CNN
F 3 "" H 8300 5250 50  0001 C CNN
	1    8300 5250
	-1   0    0    -1  
$EndComp
Text GLabel 8050 4650 0    50   Input ~ 0
+1.8V
$Comp
L Modum:TSX7192 U4
U 1 1 630C3BE6
P 9300 4650
F 0 "U4" H 9250 4850 50  0000 C CNN
F 1 "MAX44251" H 9300 4450 50  0000 C CNN
F 2 "Package_SO:MSOP-8_3x3mm_P0.65mm" H 9300 4650 50  0001 C CNN
F 3 "https://www.mouser.pl/datasheet/2/256/MAX44250-MAX44252-1292083.pdf?fbclid=IwAR3IDk3T1fuLiueNwZxDKUV8HR6Qzys5mp2ZaP_C6ihii_mOct90odM4W1g" H 9300 4650 50  0001 C CNN
	1    9300 4650
	1    0    0    1   
$EndComp
$Comp
L Device:R_Small R31
U 1 1 630C3BEC
P 8650 5050
F 0 "R31" V 8750 5000 50  0000 L CNN
F 1 "10k" V 8550 5000 50  0000 L CNN
F 2 "Resistor_SMD:R_0603_1608Metric_Pad0.98x0.95mm_HandSolder" H 8650 5050 50  0001 C CNN
F 3 "~" H 8650 5050 50  0001 C CNN
	1    8650 5050
	0    1    -1   0   
$EndComp
$Comp
L Device:R_Small R28
U 1 1 630C3BF2
P 8300 5150
F 0 "R28" H 8350 5100 50  0000 L CNN
F 1 "10k" H 8350 5200 50  0000 L CNN
F 2 "Resistor_SMD:R_0603_1608Metric_Pad0.98x0.95mm_HandSolder" H 8300 5150 50  0001 C CNN
F 3 "~" H 8300 5150 50  0001 C CNN
	1    8300 5150
	1    0    0    1   
$EndComp
Wire Wire Line
	8300 5050 8550 5050
$Comp
L Device:R_Small R25
U 1 1 630C3BF9
P 8150 4900
F 0 "R25" V 8250 4850 50  0000 L CNN
F 1 "10k" V 8050 4850 50  0000 L CNN
F 2 "Resistor_SMD:R_0603_1608Metric_Pad0.98x0.95mm_HandSolder" H 8150 4900 50  0001 C CNN
F 3 "~" H 8150 4900 50  0001 C CNN
	1    8150 4900
	0    1    -1   0   
$EndComp
$Comp
L Device:R_Small R24
U 1 1 630C3BFF
P 8150 4650
F 0 "R24" V 8250 4600 50  0000 L CNN
F 1 "10k" V 8050 4600 50  0000 L CNN
F 2 "Resistor_SMD:R_0603_1608Metric_Pad0.98x0.95mm_HandSolder" H 8150 4650 50  0001 C CNN
F 3 "~" H 8150 4650 50  0001 C CNN
	1    8150 4650
	0    1    -1   0   
$EndComp
Wire Wire Line
	8300 4650 8250 4650
Wire Wire Line
	8250 4650 8250 4900
$Comp
L Device:R_Small R21
U 1 1 630C3C07
P 8050 5050
F 0 "R21" H 8100 5000 50  0000 L CNN
F 1 "0R" H 8100 5100 50  0000 L CNN
F 2 "Resistor_SMD:R_0603_1608Metric_Pad0.98x0.95mm_HandSolder" H 8050 5050 50  0001 C CNN
F 3 "~" H 8050 5050 50  0001 C CNN
	1    8050 5050
	-1   0    0    1   
$EndComp
Wire Wire Line
	8050 4900 8050 4950
Wire Wire Line
	8050 4900 8000 4900
Connection ~ 8050 4900
$Comp
L Device:R_Small R22
U 1 1 630C3C10
P 8050 5300
F 0 "R22" H 8100 5250 50  0000 L CNN
F 1 "DNP" H 8100 5350 50  0000 L CNN
F 2 "Resistor_SMD:R_0603_1608Metric_Pad0.98x0.95mm_HandSolder" H 8050 5300 50  0001 C CNN
F 3 "~" H 8050 5300 50  0001 C CNN
	1    8050 5300
	1    0    0    1   
$EndComp
Wire Wire Line
	8050 5150 8050 5200
Wire Wire Line
	8050 5200 7400 5200
Wire Wire Line
	7400 5200 7400 5000
Connection ~ 8050 5200
$Comp
L power:GND #PWR?
U 1 1 630C3C1A
P 8050 5400
F 0 "#PWR?" H 8050 5150 50  0001 C CNN
F 1 "GND" H 7900 5350 50  0000 C CNN
F 2 "" H 8050 5400 50  0001 C CNN
F 3 "" H 8050 5400 50  0001 C CNN
	1    8050 5400
	-1   0    0    -1  
$EndComp
Wire Wire Line
	9200 5050 9900 5050
Connection ~ 8300 5050
Connection ~ 8950 4750
Connection ~ 8250 4650
$Comp
L Device:R_Small R15
U 1 1 630C3C24
P 7325 5025
F 0 "R15" H 7375 4950 50  0000 L CNN
F 1 "DNP" H 7375 5025 50  0000 L CNN
F 2 "Resistor_SMD:R_0603_1608Metric_Pad0.98x0.95mm_HandSolder" H 7325 5025 50  0001 C CNN
F 3 "~" H 7325 5025 50  0001 C CNN
	1    7325 5025
	-1   0    0    1   
$EndComp
$Comp
L Device:R_Small R14
U 1 1 630C3C2A
P 7150 4800
F 0 "R14" V 7225 4750 50  0000 L CNN
F 1 "0R" V 7075 4750 50  0000 L CNN
F 2 "Resistor_SMD:R_0603_1608Metric_Pad0.98x0.95mm_HandSolder" H 7150 4800 50  0001 C CNN
F 3 "~" H 7150 4800 50  0001 C CNN
	1    7150 4800
	0    -1   -1   0   
$EndComp
Wire Wire Line
	7400 4800 7325 4800
Wire Wire Line
	7325 4800 7325 4925
Wire Wire Line
	7250 4800 7325 4800
Connection ~ 7325 4800
$Comp
L power:GND #PWR?
U 1 1 630C3C34
P 7325 5150
F 0 "#PWR?" H 7325 4900 50  0001 C CNN
F 1 "GND" H 7175 5100 50  0000 C CNN
F 2 "" H 7325 5150 50  0001 C CNN
F 3 "" H 7325 5150 50  0001 C CNN
	1    7325 5150
	-1   0    0    -1  
$EndComp
$Comp
L Connector:TestPoint TP16
U 1 1 630C3C3A
P 7325 5125
F 0 "TP16" V 7325 5325 50  0000 L CNN
F 1 "TestPt" V 7425 5250 50  0000 L CNN
F 2 "TestPoint:TestPoint_THTPad_D2.5mm_Drill1.2mm" H 7525 5125 50  0001 C CNN
F 3 "~" H 7525 5125 50  0001 C CNN
	1    7325 5125
	0    -1   1    0   
$EndComp
Connection ~ 7325 5125
$Comp
L Connector:TestPoint TP15
U 1 1 630C3C41
P 7325 4800
F 0 "TP15" H 7150 4925 50  0000 L CNN
F 1 "TestPt" H 7200 5000 50  0000 L CNN
F 2 "TestPoint:TestPoint_THTPad_D2.5mm_Drill1.2mm" H 7525 4800 50  0001 C CNN
F 3 "~" H 7525 4800 50  0001 C CNN
	1    7325 4800
	-1   0    0    -1  
$EndComp
$Comp
L Connector:TestPoint TP14
U 1 1 630C3C47
P 6950 4800
F 0 "TP14" H 6775 4950 50  0000 L CNN
F 1 "TestPt" H 6975 4850 50  0000 L CNN
F 2 "TestPoint:TestPoint_THTPad_D2.5mm_Drill1.2mm" H 7150 4800 50  0001 C CNN
F 3 "~" H 7150 4800 50  0001 C CNN
	1    6950 4800
	-1   0    0    -1  
$EndComp
$Comp
L Connector:TestPoint TP24
U 1 1 630C3C5D
P 8950 4750
F 0 "TP24" H 9000 4850 50  0000 L CNN
F 1 "TestPt" H 8950 4950 50  0000 L CNN
F 2 "TestPoint:TestPoint_THTPad_D2.5mm_Drill1.2mm" H 9150 4750 50  0001 C CNN
F 3 "~" H 9150 4750 50  0001 C CNN
	1    8950 4750
	-1   0    0    -1  
$EndComp
$Comp
L Device:R_Small R48
U 1 1 630C3C63
P 10200 4150
F 0 "R48" V 10275 4075 50  0000 L CNN
F 1 "0R" V 10125 4100 50  0000 L CNN
F 2 "Resistor_SMD:R_0603_1608Metric_Pad0.98x0.95mm_HandSolder" H 10200 4150 50  0001 C CNN
F 3 "~" H 10200 4150 50  0001 C CNN
	1    10200 4150
	0    -1   -1   0   
$EndComp
$Comp
L Connector:TestPoint TP28
U 1 1 630C3C6A
P 9600 4400
F 0 "TP28" H 9650 4525 50  0000 L CNN
F 1 "TestPt" H 9550 4625 50  0000 L CNN
F 2 "TestPoint:TestPoint_THTPad_D2.5mm_Drill1.2mm" H 9800 4400 50  0001 C CNN
F 3 "~" H 9800 4400 50  0001 C CNN
	1    9600 4400
	-1   0    0    -1  
$EndComp
$Comp
L Connector:TestPoint TP29
U 1 1 630C3C70
P 10050 4275
F 0 "TP29" H 10125 4350 50  0000 L CNN
F 1 "TestPt" H 10100 4500 50  0000 L CNN
F 2 "TestPoint:TestPoint_THTPad_D2.5mm_Drill1.2mm" H 10250 4275 50  0001 C CNN
F 3 "~" H 10250 4275 50  0001 C CNN
	1    10050 4275
	1    0    0    1   
$EndComp
Wire Wire Line
	10050 4150 10050 4275
$Comp
L Device:R_Small R17
U 1 1 630C3C78
P 7900 5900
F 0 "R17" H 7950 5850 50  0000 L CNN
F 1 "500" H 7950 5950 50  0000 L CNN
F 2 "Resistor_SMD:R_0603_1608Metric_Pad0.98x0.95mm_HandSolder" H 7900 5900 50  0001 C CNN
F 3 "~" H 7900 5900 50  0001 C CNN
	1    7900 5900
	-1   0    0    1   
$EndComp
$Comp
L Device:R_POT_Small RV1
U 1 1 630C3C7E
P 7900 6125
F 0 "RV1" H 7840 6171 50  0000 R CNN
F 1 "1k" H 7840 6080 50  0000 R CNN
F 2 "JC-lib-foot:SRP-RKT6V-Pot-moje" H 7900 6125 50  0001 C CNN
F 3 "https://www.tme.eu/Document/c7795bc02d96e9fb1d7a87e678e993d2/RKT6V-H.pdf" H 7900 6125 50  0001 C CNN
	1    7900 6125
	-1   0    0    -1  
$EndComp
Wire Wire Line
	6800 6450 7900 6450
$Comp
L Device:R_Small R18
U 1 1 630C3C85
P 7900 6325
F 0 "R18" H 7950 6275 50  0000 L CNN
F 1 "0R" H 7950 6375 50  0000 L CNN
F 2 "Resistor_SMD:R_0603_1608Metric_Pad0.98x0.95mm_HandSolder" H 7900 6325 50  0001 C CNN
F 3 "~" H 7900 6325 50  0001 C CNN
	1    7900 6325
	-1   0    0    1   
$EndComp
Wire Wire Line
	7900 6425 7900 6450
Connection ~ 7900 6450
Wire Wire Line
	7900 6025 7800 6025
Wire Wire Line
	7800 6025 7800 6125
Wire Wire Line
	7900 6000 7900 6025
Connection ~ 7900 6025
Wire Wire Line
	7700 5800 7750 5800
Wire Wire Line
	7900 5800 8500 5800
Connection ~ 7900 5800
Wire Wire Line
	7900 6450 8250 6450
$Comp
L Device:R_Small R27
U 1 1 630C3C95
P 8250 6325
F 0 "R27" H 8300 6275 50  0000 L CNN
F 1 "0R" H 8300 6375 50  0000 L CNN
F 2 "Resistor_SMD:R_0603_1608Metric_Pad0.98x0.95mm_HandSolder" H 8250 6325 50  0001 C CNN
F 3 "~" H 8250 6325 50  0001 C CNN
	1    8250 6325
	-1   0    0    1   
$EndComp
Wire Wire Line
	8250 6450 8250 6425
Connection ~ 8250 6450
Wire Wire Line
	8250 6450 9300 6450
Wire Wire Line
	8250 6225 8250 6150
$Comp
L power:GND #PWR?
U 1 1 630C3C9F
P 7000 6100
F 0 "#PWR?" H 7000 5850 50  0001 C CNN
F 1 "GND" H 6850 6050 50  0000 C CNN
F 2 "" H 7000 6100 50  0001 C CNN
F 3 "" H 7000 6100 50  0001 C CNN
	1    7000 6100
	-1   0    0    -1  
$EndComp
Text GLabel 6900 5425 0    50   Input ~ 0
+9V
Text GLabel 9825 5200 2    50   Input ~ 0
+9V
$Comp
L power:GND #PWR?
U 1 1 630C3CA7
P 9550 5900
F 0 "#PWR?" H 9550 5650 50  0001 C CNN
F 1 "GND" H 9400 5850 50  0000 C CNN
F 2 "" H 9550 5900 50  0001 C CNN
F 3 "" H 9550 5900 50  0001 C CNN
	1    9550 5900
	-1   0    0    -1  
$EndComp
$Comp
L Device:R_Small R39
U 1 1 630C3CAD
P 9300 6300
F 0 "R39" H 9350 6250 50  0000 L CNN
F 1 "0R" H 9350 6350 50  0000 L CNN
F 2 "Resistor_SMD:R_0603_1608Metric_Pad0.98x0.95mm_HandSolder" H 9300 6300 50  0001 C CNN
F 3 "~" H 9300 6300 50  0001 C CNN
	1    9300 6300
	-1   0    0    1   
$EndComp
Wire Wire Line
	9300 6450 9300 6400
Wire Wire Line
	9300 6200 9300 6175
$Comp
L Connector:TestPoint TP27
U 1 1 630C3CB5
P 9300 6450
F 0 "TP27" V 9300 6650 50  0000 L CNN
F 1 "TestPt" V 9375 6650 50  0000 L CNN
F 2 "TestPoint:TestPoint_THTPad_D2.5mm_Drill1.2mm" H 9500 6450 50  0001 C CNN
F 3 "~" H 9500 6450 50  0001 C CNN
	1    9300 6450
	0    1    -1   0   
$EndComp
$Comp
L Connector:TestPoint TP26
U 1 1 630C3CBB
P 9300 6175
F 0 "TP26" V 9200 6275 50  0000 L CNN
F 1 "TestPt" V 9300 6375 50  0000 L CNN
F 2 "TestPoint:TestPoint_THTPad_D2.5mm_Drill1.2mm" H 9500 6175 50  0001 C CNN
F 3 "~" H 9500 6175 50  0001 C CNN
	1    9300 6175
	0    1    -1   0   
$EndComp
Connection ~ 9300 6175
Wire Wire Line
	9300 6175 9300 6150
$Comp
L Connector:TestPoint TP17
U 1 1 630C3CC3
P 7400 5450
F 0 "TP17" V 7325 5525 50  0000 L CNN
F 1 "TestPt" V 7475 5475 50  0000 L CNN
F 2 "TestPoint:TestPoint_THTPad_D2.5mm_Drill1.2mm" H 7600 5450 50  0001 C CNN
F 3 "~" H 7600 5450 50  0001 C CNN
	1    7400 5450
	0    1    -1   0   
$EndComp
Wire Wire Line
	7900 5700 7900 5650
$Comp
L Connector:TestPoint TP18
U 1 1 630C3CCA
P 7750 5800
F 0 "TP18" V 7800 6000 50  0000 L CNN
F 1 "TestPt" V 7700 6000 50  0000 L CNN
F 2 "TestPoint:TestPoint_THTPad_D2.5mm_Drill1.2mm" H 7950 5800 50  0001 C CNN
F 3 "~" H 7950 5800 50  0001 C CNN
	1    7750 5800
	-1   0    0    -1  
$EndComp
Connection ~ 7750 5800
Wire Wire Line
	7750 5800 7900 5800
$Comp
L Device:R_Small R12
U 1 1 630C3CD2
P 6800 6075
F 0 "R12" H 6850 6025 50  0000 L CNN
F 1 "5k" H 6850 6125 50  0000 L CNN
F 2 "Resistor_SMD:R_0603_1608Metric_Pad0.98x0.95mm_HandSolder" H 6800 6075 50  0001 C CNN
F 3 "~" H 6800 6075 50  0001 C CNN
	1    6800 6075
	-1   0    0    1   
$EndComp
$Comp
L Device:R_Small R13
U 1 1 630C3CD8
P 6800 6275
F 0 "R13" H 6850 6225 50  0000 L CNN
F 1 "0R" H 6850 6325 50  0000 L CNN
F 2 "Resistor_SMD:R_0603_1608Metric_Pad0.98x0.95mm_HandSolder" H 6800 6275 50  0001 C CNN
F 3 "~" H 6800 6275 50  0001 C CNN
	1    6800 6275
	-1   0    0    1   
$EndComp
Wire Wire Line
	6800 5975 6800 5900
Connection ~ 6800 5900
Wire Wire Line
	6800 6375 6800 6450
Connection ~ 9300 6450
Connection ~ 9600 4400
Wire Wire Line
	9600 4400 9900 4400
Wire Wire Line
	5900 5200 6600 5200
$Comp
L Device:R_Small R52
U 1 1 63308629
P 11100 1825
F 0 "R52" H 11150 1775 50  0000 L CNN
F 1 "3k" H 11150 1875 50  0000 L CNN
F 2 "Resistor_SMD:R_0603_1608Metric_Pad0.98x0.95mm_HandSolder" H 11100 1825 50  0001 C CNN
F 3 "~" H 11100 1825 50  0001 C CNN
	1    11100 1825
	-1   0    0    1   
$EndComp
Wire Wire Line
	11100 1950 11100 1925
Connection ~ 11100 1950
Wire Wire Line
	11100 1725 11100 1650
Connection ~ 11100 1650
$Comp
L Device:R_Small R47
U 1 1 633C3301
P 9900 4300
F 0 "R47" H 9950 4250 50  0000 L CNN
F 1 "3k" H 9950 4350 50  0000 L CNN
F 2 "Resistor_SMD:R_0603_1608Metric_Pad0.98x0.95mm_HandSolder" H 9900 4300 50  0001 C CNN
F 3 "~" H 9900 4300 50  0001 C CNN
	1    9900 4300
	-1   0    0    1   
$EndComp
Wire Wire Line
	10325 4150 10300 4150
Wire Wire Line
	9900 4150 9900 4200
Wire Wire Line
	10100 4150 10050 4150
Wire Wire Line
	10050 4150 9900 4150
Connection ~ 10050 4150
Wire Wire Line
	7050 4800 6950 4800
Wire Wire Line
	9950 5600 10075 5600
Wire Wire Line
	10075 5600 10075 6050
Wire Wire Line
	10075 6050 10300 6050
Connection ~ 9950 5600
Connection ~ 10300 6050
Text GLabel 8450 1550 2    50   Input ~ 0
SIG1
Text GLabel 8450 1400 2    50   Input ~ 0
SIG2
Text GLabel 7650 3450 0    50   Input ~ 0
SIG1
Text GLabel 6450 5900 0    50   Input ~ 0
SIG2
Wire Wire Line
	6950 4800 6850 4800
Wire Wire Line
	6850 4800 6850 4425
Wire Wire Line
	6850 4425 7225 4425
Wire Wire Line
	7225 4425 7225 2725
Wire Wire Line
	7225 2725 7950 2725
Wire Wire Line
	7950 2725 7950 2450
Wire Wire Line
	7950 2450 7850 2450
Connection ~ 6950 4800
$Comp
L Modum:TSX7192 U4
U 3 1 63823D16
P 10400 875
F 0 "U4" V 10200 650 50  0000 L CNN
F 1 "MAX44251" V 10200 825 50  0000 L CNN
F 2 "Package_SO:MSOP-8_3x3mm_P0.65mm" H 10400 875 50  0001 C CNN
F 3 "https://www.mouser.pl/datasheet/2/256/MAX44250-MAX44252-1292083.pdf?fbclid=IwAR3IDk3T1fuLiueNwZxDKUV8HR6Qzys5mp2ZaP_C6ihii_mOct90odM4W1g" H 10400 875 50  0001 C CNN
	3    10400 875 
	1    0    0    -1  
$EndComp
$Comp
L Modum:TSX7192 U7
U 3 1 63828424
P 10575 875
F 0 "U7" V 10375 625 50  0000 L CNN
F 1 "MAX44251" V 10375 850 50  0000 L CNN
F 2 "Package_SO:MSOP-8_3x3mm_P0.65mm" H 10575 875 50  0001 C CNN
F 3 "https://www.mouser.pl/datasheet/2/256/MAX44250-MAX44252-1292083.pdf?fbclid=IwAR3IDk3T1fuLiueNwZxDKUV8HR6Qzys5mp2ZaP_C6ihii_mOct90odM4W1g" H 10575 875 50  0001 C CNN
	3    10575 875 
	1    0    0    -1  
$EndComp
$Comp
L Modum:TSX7192 U8
U 3 1 6385CD5A
P 10750 875
F 0 "U8" V 10550 625 50  0000 L CNN
F 1 "MAX44251" V 10525 825 50  0000 L CNN
F 2 "Package_SO:MSOP-8_3x3mm_P0.65mm" H 10750 875 50  0001 C CNN
F 3 "https://www.mouser.pl/datasheet/2/256/MAX44250-MAX44252-1292083.pdf?fbclid=IwAR3IDk3T1fuLiueNwZxDKUV8HR6Qzys5mp2ZaP_C6ihii_mOct90odM4W1g" H 10750 875 50  0001 C CNN
	3    10750 875 
	1    0    0    -1  
$EndComp
Connection ~ 10475 1175
Text GLabel 10075 575  0    50   Input ~ 0
+9V
$Comp
L power:GND #PWR?
U 1 1 639DC386
P 10125 1175
F 0 "#PWR?" H 10125 925 50  0001 C CNN
F 1 "GND" H 10130 1002 50  0000 C CNN
F 2 "" H 10125 1175 50  0001 C CNN
F 3 "" H 10125 1175 50  0001 C CNN
	1    10125 1175
	-1   0    0    -1  
$EndComp
$Comp
L Device:D_Zener D6
U 1 1 63A16366
P 9400 1250
F 0 "D6" V 9300 1100 50  0000 L CNN
F 1 "1.8V" V 9500 1100 50  0000 L CNN
F 2 "Diode_SMD:D_SOD-123" H 9400 1250 50  0001 C CNN
F 3 "https://www.mouser.pl/datasheet/2/308/1/MMSZ4678T1_D-2316153.pdf" H 9400 1250 50  0001 C CNN
	1    9400 1250
	0    1    1    0   
$EndComp
Text GLabel 9750 1100 2    50   Input ~ 0
+1.8V
$Comp
L Device:CP1 C15
U 1 1 63A16375
P 9650 1300
F 0 "C15" H 9750 1375 50  0000 L CNN
F 1 "220u" H 9725 1175 50  0000 L CNN
F 2 "Capacitor_THT:CP_Radial_D6.3mm_P2.50mm" H 9650 1300 50  0001 C CNN
F 3 "https://www.mouser.pl/datasheet/2/445/860010373010-1725375.pdf" H 9650 1300 50  0001 C CNN
	1    9650 1300
	1    0    0    -1  
$EndComp
Wire Wire Line
	9400 1100 9650 1100
Wire Wire Line
	9650 1100 9650 1150
Connection ~ 9650 1100
Wire Wire Line
	9650 1100 9750 1100
$Comp
L power:GND #PWR?
U 1 1 63A1637F
P 9650 1450
F 0 "#PWR?" H 9650 1200 50  0001 C CNN
F 1 "GND" H 9655 1277 50  0000 C CNN
F 2 "" H 9650 1450 50  0001 C CNN
F 3 "" H 9650 1450 50  0001 C CNN
	1    9650 1450
	-1   0    0    -1  
$EndComp
Wire Wire Line
	9650 1450 9400 1450
Wire Wire Line
	9400 1450 9400 1400
Connection ~ 9650 1450
$Comp
L Device:R_Small R32
U 1 1 63ABAAEF
P 8825 1000
F 0 "R32" H 8675 950 50  0000 L CNN
F 1 "500" H 8625 1050 50  0000 L CNN
F 2 "Resistor_SMD:R_0603_1608Metric_Pad0.98x0.95mm_HandSolder" H 8825 1000 50  0001 C CNN
F 3 "~" H 8825 1000 50  0001 C CNN
	1    8825 1000
	-1   0    0    1   
$EndComp
Connection ~ 8825 1100
Wire Wire Line
	8825 900  8825 700 
Connection ~ 8825 700 
$Comp
L Device:R_Small R42
U 1 1 63C7CF00
P 9400 1000
F 0 "R42" H 9250 950 50  0000 L CNN
F 1 "1k" H 9250 1050 50  0000 L CNN
F 2 "Resistor_SMD:R_0603_1608Metric_Pad0.98x0.95mm_HandSolder" H 9400 1000 50  0001 C CNN
F 3 "~" H 9400 1000 50  0001 C CNN
	1    9400 1000
	-1   0    0    1   
$EndComp
Wire Wire Line
	9400 700  9400 900 
Wire Wire Line
	8825 700  9400 700 
$Comp
L Connector:TestPoint TP31
U 1 1 63CEF32E
P 10500 3250
F 0 "TP31" V 10575 3300 50  0000 L CNN
F 1 "TestPt" V 10500 3425 50  0000 L CNN
F 2 "TestPoint:TestPoint_THTPad_D2.5mm_Drill1.2mm" H 10700 3250 50  0001 C CNN
F 3 "~" H 10700 3250 50  0001 C CNN
	1    10500 3250
	-1   0    0    -1  
$EndComp
$Comp
L Connector:TestPoint TP25
U 1 1 63D26351
P 9300 5700
F 0 "TP25" V 9375 5750 50  0000 L CNN
F 1 "TestPt" V 9300 5875 50  0000 L CNN
F 2 "TestPoint:TestPoint_THTPad_D2.5mm_Drill1.2mm" H 9500 5700 50  0001 C CNN
F 3 "~" H 9500 5700 50  0001 C CNN
	1    9300 5700
	-1   0    0    -1  
$EndComp
$Comp
L Amplifier_Operational:LM13700 U6
U 3 1 63D6146B
P 8800 5700
F 0 "U6" H 8800 6067 50  0000 C CNN
F 1 "LM13700" H 8800 5976 50  0000 C CNN
F 2 "Package_SO:SOIC-16_3.9x9.9mm_P1.27mm" H 8500 5725 50  0001 C CNN
F 3 "https://www.ti.com/lit/ds/symlink/lm13700.pdf?HQS=dis-mous-null-mousermode-dsf-pf-null-wwe&ts=1641620132097&ref_url=https%253A%252F%252Fwww.mouser.com%252F" H 8500 5725 50  0001 C CNN
	3    8800 5700
	1    0    0    -1  
$EndComp
$Comp
L Modum:TSX7192 U8
U 2 1 63DBA5BE
P 8900 2450
F 0 "U8" H 8900 2817 50  0000 C CNN
F 1 "MAX44251" H 8900 2726 50  0000 C CNN
F 2 "Package_SO:MSOP-8_3x3mm_P0.65mm" H 8900 2450 50  0001 C CNN
F 3 "https://www.mouser.pl/datasheet/2/256/MAX44250-MAX44252-1292083.pdf?fbclid=IwAR3IDk3T1fuLiueNwZxDKUV8HR6Qzys5mp2ZaP_C6ihii_mOct90odM4W1g" H 8900 2450 50  0001 C CNN
	2    8900 2450
	1    0    0    -1  
$EndComp
Connection ~ 10800 1950
Wire Wire Line
	10800 1950 11100 1950
Connection ~ 8150 2350
Wire Wire Line
	8150 2350 8250 2350
Wire Wire Line
	10125 575  10075 575 
Wire Wire Line
	7325 5150 7325 5125
Connection ~ 10125 575 
Connection ~ 10475 575 
Wire Wire Line
	8450 6175 8450 6150
Connection ~ 10125 1175
$Comp
L Amplifier_Operational:LM13700 U6
U 5 1 62055845
P 10225 875
F 0 "U6" V 10025 600 50  0000 L CNN
F 1 "LM13700" V 10025 800 50  0000 L CNN
F 2 "Package_SO:SOIC-16_3.9x9.9mm_P1.27mm" H 9925 900 50  0001 C CNN
F 3 "http://www.ti.com/lit/ds/symlink/lm13700.pdf" H 9925 900 50  0001 C CNN
	5    10225 875 
	1    0    0    -1  
$EndComp
Connection ~ 10300 1175
Connection ~ 10300 575 
Wire Wire Line
	10125 575  10300 575 
Wire Wire Line
	10300 575  10475 575 
Wire Wire Line
	10475 575  10650 575 
Wire Wire Line
	10125 1175 10300 1175
Wire Wire Line
	10300 1175 10475 1175
Wire Wire Line
	10475 1175 10650 1175
$Comp
L Device:C_Small C20
U 1 1 61E3F3FA
P 10725 900
F 0 "C20" H 10725 1050 50  0000 C CNN
F 1 "100nF" V 10650 750 50  0000 C CNN
F 2 "Capacitor_SMD:C_0603_1608Metric_Pad1.08x0.95mm_HandSolder" H 10725 900 50  0001 C CNN
F 3 "https://pl.mouser.com/datasheet/2/445/885012206095-1727433.pdf" H 10725 900 50  0001 C CNN
F 4 "885012206095 " H 10725 900 50  0001 C CNN "Name"
	1    10725 900 
	-1   0    0    1   
$EndComp
$Comp
L Device:C_Small C21
U 1 1 61E7A4B4
P 10875 900
F 0 "C21" H 10875 1050 50  0000 C CNN
F 1 "100nF" H 10875 1125 50  0000 C CNN
F 2 "Capacitor_SMD:C_0603_1608Metric_Pad1.08x0.95mm_HandSolder" H 10875 900 50  0001 C CNN
F 3 "https://pl.mouser.com/datasheet/2/445/885012206095-1727433.pdf" H 10875 900 50  0001 C CNN
F 4 "885012206095 " H 10875 900 50  0001 C CNN "Name"
	1    10875 900 
	-1   0    0    1   
$EndComp
$Comp
L Device:C_Small C23
U 1 1 61EB29DE
P 11025 900
F 0 "C23" H 11025 1050 50  0000 C CNN
F 1 "100nF" V 11075 750 50  0000 C CNN
F 2 "Capacitor_SMD:C_0603_1608Metric_Pad1.08x0.95mm_HandSolder" H 11025 900 50  0001 C CNN
F 3 "https://pl.mouser.com/datasheet/2/445/885012206095-1727433.pdf" H 11025 900 50  0001 C CNN
F 4 "885012206095 " H 11025 900 50  0001 C CNN "Name"
	1    11025 900 
	-1   0    0    1   
$EndComp
Wire Wire Line
	10725 800  10725 575 
Wire Wire Line
	10725 1175 10725 1000
Wire Wire Line
	10725 575  10875 575 
Wire Wire Line
	10875 575  10875 800 
Wire Wire Line
	10875 1175 10875 1000
Wire Wire Line
	10875 575  11025 575 
Wire Wire Line
	11025 575  11025 800 
Connection ~ 10875 575 
Wire Wire Line
	10875 1175 11025 1175
Wire Wire Line
	11025 1175 11025 1000
Connection ~ 10875 1175
$Comp
L Device:C_Small C24
U 1 1 620A2472
P 11100 825
F 0 "C24" H 11050 925 50  0000 C CNN
F 1 "100nF" V 11050 675 50  0000 C CNN
F 2 "Capacitor_SMD:C_0603_1608Metric_Pad1.08x0.95mm_HandSolder" H 11100 825 50  0001 C CNN
F 3 "https://pl.mouser.com/datasheet/2/445/885012206095-1727433.pdf" H 11100 825 50  0001 C CNN
F 4 "885012206095 " H 11100 825 50  0001 C CNN "Name"
	1    11100 825 
	-1   0    0    1   
$EndComp
Wire Wire Line
	11025 1175 11100 1175
Wire Wire Line
	11100 925  11100 1175
Connection ~ 11025 1175
Wire Wire Line
	11100 725  11100 575 
Wire Wire Line
	11100 575  11025 575 
Connection ~ 11025 575 
Wire Wire Line
	10725 575  10650 575 
Connection ~ 10725 575 
Connection ~ 10650 575 
Wire Wire Line
	10650 1175 10725 1175
Connection ~ 10650 1175
Connection ~ 10725 1175
Wire Wire Line
	10725 1175 10875 1175
$Comp
L Device:C_Small C22
U 1 1 621D1D01
P 10950 2875
F 0 "C22" H 10825 2875 50  0000 C CNN
F 1 "100nF" H 10825 2950 50  0000 C CNN
F 2 "Capacitor_SMD:C_0603_1608Metric_Pad1.08x0.95mm_HandSolder" H 10950 2875 50  0001 C CNN
F 3 "https://pl.mouser.com/datasheet/2/445/885012206095-1727433.pdf" H 10950 2875 50  0001 C CNN
F 4 "885012206095 " H 10950 2875 50  0001 C CNN "Name"
	1    10950 2875
	-1   0    0    1   
$EndComp
Text GLabel 10950 2775 2    50   Input ~ 0
+9V
$Comp
L power:GND #PWR?
U 1 1 623C1B97
P 8425 3150
F 0 "#PWR?" H 8425 2900 50  0001 C CNN
F 1 "GND" H 8275 3100 50  0000 C CNN
F 2 "" H 8425 3150 50  0001 C CNN
F 3 "" H 8425 3150 50  0001 C CNN
	1    8425 3150
	-1   0    0    -1  
$EndComp
Wire Wire Line
	8200 3050 8200 2950
Wire Wire Line
	8200 2950 8100 2950
Wire Wire Line
	8200 2950 8425 2950
Connection ~ 8200 2950
Wire Wire Line
	8000 2900 8000 3250
Wire Wire Line
	8600 2900 8600 3000
Connection ~ 8600 3000
$Comp
L power:GND #PWR?
U 1 1 62532E01
P 7250 5625
F 0 "#PWR?" H 7250 5375 50  0001 C CNN
F 1 "GND" H 7100 5575 50  0000 C CNN
F 2 "" H 7250 5625 50  0001 C CNN
F 3 "" H 7250 5625 50  0001 C CNN
	1    7250 5625
	-1   0    0    -1  
$EndComp
Connection ~ 8000 3450
Connection ~ 8525 2675
Connection ~ 8600 3350
$Comp
L Device:C_Small C18
U 1 1 6234988D
P 8425 3050
F 0 "C18" H 8375 3150 50  0000 C CNN
F 1 "100nF" H 8550 3150 50  0000 C CNN
F 2 "Capacitor_SMD:C_0603_1608Metric_Pad1.08x0.95mm_HandSolder" H 8425 3050 50  0001 C CNN
F 3 "https://pl.mouser.com/datasheet/2/445/885012206095-1727433.pdf" H 8425 3050 50  0001 C CNN
F 4 "885012206095 " H 8425 3050 50  0001 C CNN "Name"
	1    8425 3050
	-1   0    0    1   
$EndComp
$Comp
L power:GND #PWR?
U 1 1 6274E358
P 8525 2675
F 0 "#PWR?" H 8525 2425 50  0001 C CNN
F 1 "GND" H 8375 2625 50  0000 C CNN
F 2 "" H 8525 2675 50  0001 C CNN
F 3 "" H 8525 2675 50  0001 C CNN
	1    8525 2675
	-1   0    0    -1  
$EndComp
Wire Wire Line
	8000 2900 8600 2900
$Comp
L Amplifier_Operational:OPA376xxD U5
U 1 1 61E1D4F8
P 8300 3350
F 0 "U5" H 8375 3525 50  0000 C CNN
F 1 "OPA376xxD" H 8425 3625 50  0000 C CNN
F 2 "Package_SO:SOIC-8_3.9x4.9mm_P1.27mm" H 8200 3150 50  0001 L CNN
F 3 "http://www.ti.com/lit/ds/symlink/opa376.pdf" H 8450 3500 50  0001 C CNN
	1    8300 3350
	1    0    0    1   
$EndComp
$Comp
L Device:C_Small C17
U 1 1 625AE917
P 7250 5525
F 0 "C17" H 7200 5625 50  0000 C CNN
F 1 "100nF" V 7200 5375 50  0000 C CNN
F 2 "Capacitor_SMD:C_0603_1608Metric_Pad1.08x0.95mm_HandSolder" H 7250 5525 50  0001 C CNN
F 3 "https://pl.mouser.com/datasheet/2/445/885012206095-1727433.pdf" H 7250 5525 50  0001 C CNN
F 4 "885012206095 " H 7250 5525 50  0001 C CNN "Name"
	1    7250 5525
	-1   0    0    1   
$EndComp
Wire Wire Line
	7250 5425 7000 5425
Wire Wire Line
	7000 5500 7000 5425
Connection ~ 7000 5425
Wire Wire Line
	7000 5425 6900 5425
Wire Wire Line
	6800 5350 6800 5700
Wire Wire Line
	7400 5350 7400 5450
Connection ~ 7400 5450
$Comp
L Device:C_Small C19
U 1 1 6272377C
P 9750 5325
F 0 "C19" H 9650 5400 50  0000 C CNN
F 1 "100nF" H 9550 5325 50  0000 C CNN
F 2 "Capacitor_SMD:C_0603_1608Metric_Pad1.08x0.95mm_HandSolder" H 9750 5325 50  0001 C CNN
F 3 "https://pl.mouser.com/datasheet/2/445/885012206095-1727433.pdf" H 9750 5325 50  0001 C CNN
F 4 "885012206095 " H 9750 5325 50  0001 C CNN "Name"
	1    9750 5325
	-1   0    0    1   
$EndComp
$Comp
L power:GND #PWR?
U 1 1 62760FF4
P 9750 5425
F 0 "#PWR?" H 9750 5175 50  0001 C CNN
F 1 "GND" H 9600 5375 50  0000 C CNN
F 2 "" H 9750 5425 50  0001 C CNN
F 3 "" H 9750 5425 50  0001 C CNN
	1    9750 5425
	-1   0    0    -1  
$EndComp
Wire Wire Line
	9750 5225 9750 5200
Wire Wire Line
	9750 5200 9825 5200
Wire Wire Line
	9750 5200 9550 5200
Wire Wire Line
	9550 5200 9550 5300
Connection ~ 9750 5200
Wire Wire Line
	9350 5150 9350 5500
Wire Wire Line
	9950 5150 9950 5600
Wire Wire Line
	11150 3150 11150 4700
Connection ~ 11150 3150
$Comp
L Amplifier_Operational:OPA376xxD U10
U 1 1 61DBC0AB
P 10850 3150
F 0 "U10" H 11050 3550 50  0000 C CNN
F 1 "OPA376xxD" H 11000 3400 50  0000 C CNN
F 2 "Package_SO:SOIC-8_3.9x4.9mm_P1.27mm" H 10750 2950 50  0001 L CNN
F 3 "http://www.ti.com/lit/ds/symlink/opa376.pdf" H 11000 3300 50  0001 C CNN
	1    10850 3150
	1    0    0    1   
$EndComp
$Comp
L power:GND #PWR?
U 1 1 6291E7BF
P 10950 2975
F 0 "#PWR?" H 10950 2725 50  0001 C CNN
F 1 "GND" H 11075 2950 50  0000 C CNN
F 2 "" H 10950 2975 50  0001 C CNN
F 3 "" H 10950 2975 50  0001 C CNN
	1    10950 2975
	-1   0    0    -1  
$EndComp
Wire Wire Line
	10950 2775 10750 2775
Wire Wire Line
	10750 2775 10750 2850
Wire Wire Line
	11150 2725 11150 3150
Wire Wire Line
	10550 2725 10550 3050
$EndSCHEMATC
